<svg xmlns:dc="http://purl.org/dc/elements/1.1/" xmlns:cc="http://creativecommons.org/ns#" xmlns:rdf="http://www.w3.org/1999/02/22-rdf-syntax-ns#" xmlns:svg="http://www.w3.org/2000/svg" xmlns="http://www.w3.org/2000/svg" xmlns:xlink="http://www.w3.org/1999/xlink" xmlns:sodipodi="http://sodipodi.sourceforge.net/DTD/sodipodi-0.dtd" xmlns:inkscape="http://www.inkscape.org/namespaces/inkscape" id="svg5" version="1.1" viewBox="0 0 210 297" height="297mm" width="210mm" sodipodi:docname="pattern-big-example.svg" inkscape:version="1.0 (4035a4fb49, 2020-05-01)">
  <metadata id="metadata11">
    <rdf:RDF>
      <cc:Work rdf:about="">
        <dc:format>image/svg+xml</dc:format>
        <dc:type rdf:resource="http://purl.org/dc/dcmitype/StillImage"/>
        <dc:title/>
      </cc:Work>
    </rdf:RDF>
  </metadata>
  <sodipodi:namedview showguides="false" inkscape:document-rotation="0" inkscape:current-layer="layer1" inkscape:window-maximized="1" inkscape:window-y="-8" inkscape:window-x="1912" inkscape:window-height="1377" inkscape:window-width="2560" inkscape:cy="451.89261" inkscape:cx="577.63652" inkscape:zoom="0.8008768" showgrid="false" inkscape:document-units="mm" inkscape:pagecheckerboard="0" inkscape:pageopacity="0.0" inkscape:pageshadow="2" borderopacity="1.0" bordercolor="#666666" pagecolor="#ffffff" id="namedview7" inkscape:snap-global="false"/>
  <defs id="defs2">
    <linearGradient inkscape:collect="always" id="linearGradient2463">
      <stop style="stop-color:#ff0000;stop-opacity:1" offset="0" id="stop2459"/>
      <stop style="stop-color:#ffff00;stop-opacity:1" offset="1" id="stop2461"/>
    </linearGradient>
    <inkscape:path-effect only_selected="false" apply_with_weight="true" apply_no_weight="true" helper_size="0" steps="2" weight="33.333333" lpeversion="1" is_visible="true" id="path-effect4606" effect="bspline"/>
    <inkscape:path-effect only_selected="false" apply_with_weight="true" apply_no_weight="true" helper_size="0" steps="2" weight="33.333333" lpeversion="1" is_visible="true" id="path-effect4602" effect="bspline"/>
    <inkscape:path-effect only_selected="false" apply_with_weight="true" apply_no_weight="true" helper_size="0" steps="2" weight="33.333333" lpeversion="1" is_visible="true" id="path-effect4598" effect="bspline"/>
    <inkscape:path-effect only_selected="false" apply_with_weight="true" apply_no_weight="true" helper_size="0" steps="2" weight="33.333333" lpeversion="1" is_visible="true" id="path-effect4594" effect="bspline"/>
    <inkscape:path-effect only_selected="false" apply_with_weight="true" apply_no_weight="true" helper_size="0" steps="2" weight="33.333333" lpeversion="1" is_visible="true" id="path-effect4590" effect="bspline"/>
    <inkscape:path-effect only_selected="false" apply_with_weight="true" apply_no_weight="true" helper_size="0" steps="2" weight="33.333333" lpeversion="1" is_visible="true" id="path-effect4414" effect="bspline"/>
    <radialGradient inkscape:collect="always" xlink:href="#linearGradient2463" id="radialGradient2465" cx="45.472672" cy="275.52158" fx="45.472672" fy="275.52158" r="2.3852139" gradientTransform="matrix(-7.3746775,-1.9411697,1.8682552,-7.0977466,-123.48734,2319.7902)" gradientUnits="userSpaceOnUse"/>
  </defs>
  <g id="layer1" inkscape:groupmode="layer" inkscape:label="Layer 1">
    <path id="path4608" style="fill:none;stroke:#000000;stroke-width:0.264583px;stroke-linecap:butt;stroke-linejoin:miter;stroke-opacity:1" d="m 102.69135,205.60704 c 7.56924,5.10722 15.13847,8.22792 22.70769,10.66114 7.56923,2.43322 15.13846,4.17896 22.70766,6.53626 m -80.270114,-1.82883 c 7.628297,-5.93952 16.412387,-8.52619 26.079029,-8.55451 5.063508,-0.0148 31.678085,4.14101 37.186335,5.41602" sodipodi:nodetypes="csccsc"/>
    <path sodipodi:nodetypes="cc" id="path4610" d="m 152.74082,203.46622 c -14.61821,17.14239 -13.9335,27.78253 40.63515,15.52725" style="fill:none;stroke:#000000;stroke-width:0.264583px;stroke-linecap:butt;stroke-linejoin:miter;stroke-opacity:1"/>
    <path sodipodi:nodetypes="cc" id="path4612" d="m 120.19966,235.33295 c -7.78728,-14.49174 9.34424,-14.11137 27.91601,-12.87143" style="fill:none;stroke:#000000;stroke-width:0.264583px;stroke-linecap:butt;stroke-linejoin:miter;stroke-opacity:1"/>
    <path id="path2405" style="fill:none;stroke:#000000;stroke-width:0.4;stroke-linecap:round;stroke-linejoin:round;stroke-miterlimit:4;stroke-dasharray:none;stroke-opacity:1" d="m 68.629977,276.10133 a 12.4714,12.4714 0 0 1 -12.4714,12.4713 12.4714,12.4714 0 0 1 -12.4713,-12.4713 12.4714,12.4714 0 0 1 12.4713,-12.4714 12.4714,12.4714 0 0 1 12.4714,12.4714 z"/>
    <path id="path10007" style="fill:none;stroke:#000000;stroke-width:0.264583px;stroke-linecap:butt;stroke-linejoin:miter;stroke-opacity:1" d="m 65.235242,91.471976 c 17.2141,-10.338894 38.173748,-18.095588 58.586378,0 20.4126,18.095594 33.8118,22.575194 59.5313,0"/>
    <g transform="translate(-33.456327,-22.958761)" id="g3961">
      <g id="g1969" transform="translate(-5.9028412,-4.6660516)">
        <g id="g1887">
          <g id="g8061" transform="rotate(90,71.635047,120.03912)">
            <path id="rect10009" style="fill:#80b3ff;stroke:#000000;stroke-width:0.4;stroke-linecap:round;stroke-linejoin:round;stroke-miterlimit:4;stroke-dasharray:none;stroke-opacity:1" d="m 77.777159,114.74745 v 10.58334 H 65.492934 v -10.58334 z" inkscape:connector-curvature="0"/>
          </g>
          <path sodipodi:type="star" style="fill:#ffff00;stroke:none;stroke-width:0.4;stroke-linecap:round;stroke-linejoin:round;stroke-miterlimit:4;stroke-dasharray:none;stroke-opacity:1" id="path1801" sodipodi:sides="5" sodipodi:cx="68.881531" sodipodi:cy="116.12402" sodipodi:r1="1.9993351" sodipodi:r2="0.86082768" sodipodi:arg1="0.90250691" sodipodi:arg2="1.5308254" inkscape:flatsided="false" inkscape:rounded="0" inkscape:randomized="0" inkscape:transform-center-x="0.024689446" inkscape:transform-center-y="-0.16728824" d="m 70.120407,117.69327 -1.204477,-0.70911 -1.144005,0.80303 0.302194,-1.36465 -1.117239,-0.83987 1.391244,-0.1343 0.453513,-1.32208 0.557642,1.28165 1.397525,0.0228 -1.046602,0.92641 z"/>
          <path id="path1803" style="fill:#ffff00;stroke:none;stroke-width:0.4;stroke-linecap:round;stroke-linejoin:round;stroke-miterlimit:4;stroke-dasharray:none;stroke-opacity:1" d="m 75.406281,123.88766 a 1.0736929,1.0736929 0 0 1 -1.073693,1.07369 1.0736929,1.0736929 0 0 1 -1.073693,-1.07369 1.0736929,1.0736929 0 0 1 1.073693,-1.0737 1.0736929,1.0736929 0 0 1 1.073693,1.0737"/>
        </g>
      </g>
    </g>
    <path sodipodi:nodetypes="cssssc" id="path2551" d="m 66.696227,19.616799 h 33.540413 c 17.50702,0 36.48737,0.558859 42.38122,4.149896 11.78771,7.182076 6.13824,28.747462 -6.54093,27.098159 -15.14915,-1.970597 -8.33693,8.76206 -26.63095,8.643376 -14.440807,-0.09369 -15.8852,-9.110587 -15.8852,-9.110587" style="fill:none;stroke:#ff0000;stroke-width:0.264583px;stroke-linecap:butt;stroke-linejoin:miter;stroke-opacity:1"/>
    <g transform="translate(8.9958363,-26.458334)" id="g3427">
      <path style="fill:#0000ff;fill-opacity:1;stroke:none;stroke-width:0.265;stroke-linecap:butt;stroke-linejoin:miter;stroke-miterlimit:4;stroke-dasharray:none;stroke-opacity:1" d="m 16,42 h 16 v 2 H 16 v 2 h 16 v 2 H 16 v 2 h 16 v 2 H 16 v 2 h 16 v 2 H 30 V 40 H 28 V 56 H 26 V 40 H 24 V 56 H 22 V 40 H 20 V 56 H 18 V 40 h -2 z" id="path3421" sodipodi:nodetypes="ccccccccccccccccccccccccccccccc"/>
      <path id="rect2553" style="fill:none;stroke:#000000;stroke-width:0.4;stroke-linecap:round;stroke-linejoin:round;stroke-miterlimit:4;stroke-dasharray:none;stroke-opacity:1" d="M 16.2,40.2 H 31.8 V 55.8 H 16.2 Z"/>
    </g>
    <path d="M 55.694667,135.54916 H 203.56637" style="fill:none;stroke:#000000;stroke-width:0.264583px;stroke-linecap:butt;stroke-linejoin:miter;stroke-opacity:1" id="path4056"/>
    <g transform="translate(0.99860536,-13.892782)" id="g4054">
      <g id="g4151">
        <path sodipodi:nodetypes="czc" d="m 5.6348352,150.02936 c 5.2255138,-5.1793 13.0287708,-9.651 22.0177948,0 8.989024,9.651 17.128855,6.05298 22.833822,0" style="fill:none;stroke:#000000;stroke-width:0.264583px;stroke-linecap:butt;stroke-linejoin:miter;stroke-opacity:1" id="path10007-4"/>
        <g id="g4044">
          <path id="path4017" style="fill:#008000;fill-opacity:1;stroke:#6c5353;stroke-width:0.264999;stroke-linecap:round;stroke-linejoin:round;stroke-miterlimit:4;stroke-dasharray:none;stroke-opacity:1" d="m 28.490966,143.37525 c 0.0889,0.26729 0.594071,0.43306 -1.92815,1.08343 -2.52222,0.65037 -4.727912,0.69363 -4.727912,0.69363 0,0 1.883657,-1.0112 4.405901,-1.66157 2.522243,-0.65037 2.161255,-0.38279 2.250161,-0.11549 z" sodipodi:nodetypes="sscss"/>
          <use x="0" y="0" xlink:href="#path4017" id="use4037" transform="rotate(89.695774,20.440309,143.33554)" width="100%" height="100%"/>
          <use x="0" y="0" xlink:href="#path4017" id="use4039" transform="rotate(121.20692,20.34915,144.0435)" width="100%" height="100%"/>
        </g>
        <use height="100%" width="100%" transform="matrix(0.96978159,0.24397473,0.24397473,-0.96978159,-14.915921,291.41233)" id="use4046" xlink:href="#g4044" y="0" x="0"/>
      </g>
    </g>
    <svg:path d="m 82.6652 179.989 c 0.22358 -3.64537 0.447165 -7.29083 2.58528 -9.05892 c 2.13811 -1.76809 6.19052 -1.65873 8.24467 0.29168 c 2.05416 1.9504 2.11005 5.7416 1.29954 8.38453 c -0.810518 2.64294 -2.48738 4.13755 -2.06808 5.17652 c 0.419293 1.03896 2.93458 1.62222 5.46389 0.94778 c 2.5293 -0.67444 5.07254 -2.60649 6.88919 -4.35632 c 1.81664 -1.74982 2.9066 -3.31733 3.99661 -4.88491" style="fill:none;stroke:#000000;stroke-width:0.264583px;stroke-linecap:butt;stroke-linejoin:miter;stroke-opacity:1" id="path4412"/>
    <g transform="translate(12.96712,-20.843619)" style="font-size:3.52777px;line-height:125%;font-family:sans-serif;letter-spacing:0px;word-spacing:0px;fill:none;stroke:none;stroke-width:0.264583px;stroke-linecap:butt;stroke-linejoin:miter;stroke-opacity:1" id="text4418" aria-label="Lorem ipsum dolor sit amet">
      <path id="path4420" style="fill:#000000;stroke:none;stroke-width:0.264583px" d="m 5.9527467,194.24028 h 0.3479539 v 2.27893 h 1.2522895 v 0.29283 H 5.9527467 Z"/>
      <path id="path4422" style="fill:#000000;stroke:none;stroke-width:0.264583px" d="m 8.5882391,195.105 q -0.2549366,0 -0.4030753,0.19982 -0.1481388,0.19809 -0.1481388,0.54432 0,0.34623 0.1464162,0.54605 0.1481388,0.19809 0.4047979,0.19809 0.2532139,0 0.4013527,-0.19982 0.1481388,-0.19981 0.1481388,-0.54432 0,-0.34279 -0.1481388,-0.5426 Q 8.841453,195.105 8.5882391,195.105 Z m 0,-0.26872 q 0.4134105,0 0.649399,0.26872 0.2359885,0.26872 0.2359885,0.74414 0,0.4737 -0.2359885,0.74414 -0.2359885,0.26872 -0.649399,0.26872 -0.4151331,0 -0.6511217,-0.26872 -0.2342659,-0.27044 -0.2342659,-0.74414 0,-0.47542 0.2342659,-0.74414 0.2359886,-0.26872 0.6511217,-0.26872 z"/>
      <path id="path4424" style="fill:#000000;stroke:none;stroke-width:0.264583px" d="m 11.115211,195.17907 q -0.0534,-0.031 -0.117133,-0.0448 -0.06201,-0.0155 -0.137804,-0.0155 -0.268717,0 -0.41341,0.1757 -0.142971,0.17398 -0.142971,0.50126 v 1.0163 H 9.985222 v -1.92925 h 0.318671 v 0.29973 q 0.09991,-0.1757 0.260104,-0.26011 0.160196,-0.0861 0.389295,-0.0861 0.03273,0 0.07235,0.005 0.03962,0.003 0.08785,0.0121 z"/>
      <path id="path4426" style="fill:#000000;stroke:none;stroke-width:0.264583px" d="m 13.025512,195.76818 v 0.15503 H 11.56824 q 0.02067,0.32728 0.19637,0.49954 0.177422,0.17053 0.492648,0.17053 0.182589,0 0.353121,-0.0448 0.172255,-0.0448 0.341064,-0.13436 v 0.29973 q -0.170532,0.0723 -0.349676,0.11024 -0.179145,0.0379 -0.363457,0.0379 -0.461642,0 -0.732081,-0.26872 -0.268717,-0.26872 -0.268717,-0.72691 0,-0.4737 0.254936,-0.75103 0.256659,-0.27906 0.69074,-0.27906 0.389295,0 0.614949,0.2515 0.227375,0.24976 0.227375,0.6804 z m -0.316948,-0.093 q -0.0034,-0.2601 -0.146416,-0.41513 -0.141249,-0.15503 -0.375514,-0.15503 -0.265272,0 -0.425469,0.14986 -0.158474,0.14986 -0.18259,0.42203 z"/>
      <path id="path4428" style="fill:#000000;stroke:none;stroke-width:0.264583px" d="m 15.047779,195.25314 q 0.118856,-0.2136 0.28422,-0.31523 0.165364,-0.10163 0.389295,-0.10163 0.301445,0 0.465087,0.21188 0.163641,0.21015 0.163641,0.59944 v 1.16444 h -0.31867 v -1.1541 q 0,-0.27733 -0.09818,-0.41169 -0.09818,-0.13436 -0.299723,-0.13436 -0.246324,0 -0.389295,0.16364 -0.142971,0.16364 -0.142971,0.44614 v 1.09037 h -0.318671 v -1.1541 q 0,-0.27905 -0.09819,-0.41169 -0.09818,-0.13436 -0.303167,-0.13436 -0.242879,0 -0.38585,0.16537 -0.142971,0.16364 -0.142971,0.44441 v 1.09037 h -0.318671 v -1.92925 h 0.318671 v 0.29973 q 0.10852,-0.17743 0.260104,-0.26183 0.151584,-0.0844 0.360011,-0.0844 0.210151,0 0.356567,0.1068 0.148139,0.1068 0.218763,0.31006 z"/>
      <path id="path4430" style="fill:#000000;stroke:none;stroke-width:0.264583px" d="m 18.107017,194.88279 h 0.316948 v 1.92925 h -0.316948 z m 0,-0.75103 h 0.316948 v 0.40136 h -0.316948 z"/>
      <path id="path4432" style="fill:#000000;stroke:none;stroke-width:0.264583px" d="m 19.392035,196.52265 v 1.0232 h -0.318671 v -2.66306 h 0.318671 v 0.29284 q 0.09991,-0.17226 0.251491,-0.25494 0.153307,-0.0844 0.36518,-0.0844 0.351399,0 0.570162,0.27906 0.220485,0.27905 0.220485,0.7338 0,0.45475 -0.220485,0.7338 -0.218763,0.27906 -0.570162,0.27906 -0.211873,0 -0.36518,-0.0827 -0.151583,-0.0844 -0.251491,-0.25666 z m 1.078313,-0.67351 q 0,-0.34968 -0.144694,-0.54777 -0.142971,-0.19981 -0.394463,-0.19981 -0.251491,0 -0.396185,0.19981 -0.142971,0.19809 -0.142971,0.54777 0,0.34968 0.142971,0.54949 0.144694,0.19809 0.396185,0.19809 0.251492,0 0.394463,-0.19809 0.144694,-0.19981 0.144694,-0.54949 z"/>
      <path id="path4434" style="fill:#000000;stroke:none;stroke-width:0.264583px" d="m 22.554626,194.93964 v 0.29972 q -0.134358,-0.0689 -0.279052,-0.10335 -0.144694,-0.0344 -0.299723,-0.0344 -0.235988,0 -0.354844,0.0723 -0.117133,0.0724 -0.117133,0.21704 0,0.11025 0.08441,0.17398 0.0844,0.062 0.339341,0.11886 l 0.10852,0.0241 q 0.337619,0.0724 0.478867,0.20498 0.142972,0.13092 0.142972,0.36691 0,0.26871 -0.213596,0.42546 -0.211873,0.15676 -0.583942,0.15676 -0.155029,0 -0.323839,-0.031 -0.167086,-0.0293 -0.353121,-0.0896 v -0.32729 q 0.175699,0.0913 0.346231,0.13781 0.170532,0.0448 0.337619,0.0448 0.223931,0 0.344509,-0.0758 0.120578,-0.0775 0.120578,-0.21704 0,-0.12919 -0.08785,-0.19809 -0.08613,-0.0689 -0.380682,-0.13264 l -0.110243,-0.0258 q -0.294555,-0.062 -0.425468,-0.18948 -0.130914,-0.1292 -0.130914,-0.35313 0,-0.27216 0.192925,-0.4203 0.192925,-0.14814 0.547769,-0.14814 0.1757,0 0.330729,0.0258 0.155029,0.0258 0.285942,0.0775 z"/>
      <path id="path4436" style="fill:#000000;stroke:none;stroke-width:0.264583px" d="m 23.131677,196.05068 v -1.16789 h 0.316948 v 1.15583 q 0,0.27388 0.106798,0.41169 0.106798,0.13608 0.320393,0.13608 0.256659,0 0.404798,-0.16364 0.149861,-0.16364 0.149861,-0.44614 v -1.09382 h 0.316948 v 1.92925 h -0.316948 v -0.29628 q -0.11541,0.1757 -0.268717,0.26183 -0.151583,0.0844 -0.353121,0.0844 -0.332451,0 -0.504705,-0.20671 -0.172255,-0.2067 -0.172255,-0.60461 z m 0.797538,-1.2144 z"/>
      <path id="path4438" style="fill:#000000;stroke:none;stroke-width:0.264583px" d="m 26.905771,195.25314 q 0.118856,-0.2136 0.28422,-0.31523 0.165364,-0.10163 0.389295,-0.10163 0.301445,0 0.465087,0.21188 0.163641,0.21015 0.163641,0.59944 v 1.16444 h -0.31867 v -1.1541 q 0,-0.27733 -0.09819,-0.41169 -0.09819,-0.13436 -0.299723,-0.13436 -0.246324,0 -0.389295,0.16364 -0.142971,0.16364 -0.142971,0.44614 v 1.09037 h -0.318671 v -1.1541 q 0,-0.27905 -0.09818,-0.41169 -0.09819,-0.13436 -0.303167,-0.13436 -0.242879,0 -0.38585,0.16537 -0.142971,0.16364 -0.142971,0.44441 v 1.09037 h -0.318671 v -1.92925 h 0.318671 v 0.29973 q 0.10852,-0.17743 0.260104,-0.26183 0.151584,-0.0844 0.360012,-0.0844 0.21015,0 0.356566,0.1068 0.148139,0.1068 0.218763,0.31006 z"/>
      <path id="path4440" style="fill:#000000;stroke:none;stroke-width:0.264583px" d="m 31.234524,195.17563 v -1.04387 h 0.316948 v 2.68028 h -0.316948 v -0.28939 q -0.09991,0.17226 -0.253214,0.25666 -0.151584,0.0827 -0.365179,0.0827 -0.349676,0 -0.570162,-0.27906 -0.218763,-0.27905 -0.218763,-0.7338 0,-0.45475 0.218763,-0.7338 0.220486,-0.27906 0.570162,-0.27906 0.213595,0 0.365179,0.0844 0.153307,0.0827 0.253214,0.25494 z m -1.080035,0.67351 q 0,0.34968 0.142971,0.54949 0.144694,0.19809 0.396185,0.19809 0.251492,0 0.396186,-0.19809 0.144693,-0.19981 0.144693,-0.54949 0,-0.34968 -0.144693,-0.54777 -0.144694,-0.19981 -0.396186,-0.19981 -0.251491,0 -0.396185,0.19981 -0.142971,0.19809 -0.142971,0.54777 z"/>
      <path id="path4442" style="fill:#000000;stroke:none;stroke-width:0.264583px" d="m 32.951901,195.105 q -0.254937,0 -0.403075,0.19982 -0.148139,0.19809 -0.148139,0.54432 0,0.34623 0.146416,0.54605 0.148139,0.19809 0.404798,0.19809 0.253214,0 0.401353,-0.19982 0.148138,-0.19981 0.148138,-0.54432 0,-0.34279 -0.148138,-0.5426 -0.148139,-0.20154 -0.401353,-0.20154 z m 0,-0.26872 q 0.41341,0 0.649399,0.26872 0.235988,0.26872 0.235988,0.74414 0,0.4737 -0.235988,0.74414 -0.235989,0.26872 -0.649399,0.26872 -0.415133,0 -0.651122,-0.26872 -0.234266,-0.27044 -0.234266,-0.74414 0,-0.47542 0.234266,-0.74414 0.235989,-0.26872 0.651122,-0.26872 z"/>
      <path id="path4444" style="fill:#000000;stroke:none;stroke-width:0.264583px" d="m 34.360942,194.13176 h 0.316949 v 2.68028 h -0.316949 z"/>
      <path id="path4446" style="fill:#000000;stroke:none;stroke-width:0.264583px" d="m 36.086932,195.105 q -0.254937,0 -0.403076,0.19982 -0.148139,0.19809 -0.148139,0.54432 0,0.34623 0.146417,0.54605 0.148139,0.19809 0.404798,0.19809 0.253214,0 0.401352,-0.19982 0.148139,-0.19981 0.148139,-0.54432 0,-0.34279 -0.148139,-0.5426 -0.148138,-0.20154 -0.401352,-0.20154 z m 0,-0.26872 q 0.41341,0 0.649399,0.26872 0.235988,0.26872 0.235988,0.74414 0,0.4737 -0.235988,0.74414 -0.235989,0.26872 -0.649399,0.26872 -0.415134,0 -0.651122,-0.26872 -0.234266,-0.27044 -0.234266,-0.74414 0,-0.47542 0.234266,-0.74414 0.235988,-0.26872 0.651122,-0.26872 z"/>
      <path id="path4448" style="fill:#000000;stroke:none;stroke-width:0.264583px" d="m 38.613902,195.17907 q -0.0534,-0.031 -0.117133,-0.0448 -0.06201,-0.0155 -0.137803,-0.0155 -0.268717,0 -0.413411,0.1757 -0.142971,0.17398 -0.142971,0.50126 v 1.0163 h -0.31867 v -1.92925 h 0.31867 v 0.29973 q 0.09991,-0.1757 0.260104,-0.26011 0.160197,-0.0861 0.389295,-0.0861 0.03273,0 0.07235,0.005 0.03962,0.003 0.08785,0.0121 z"/>
      <path id="path4450" style="fill:#000000;stroke:none;stroke-width:0.264583px" d="m 41.302793,194.93964 v 0.29972 q -0.134358,-0.0689 -0.279052,-0.10335 -0.144694,-0.0344 -0.299723,-0.0344 -0.235988,0 -0.354844,0.0723 -0.117133,0.0724 -0.117133,0.21704 0,0.11025 0.08441,0.17398 0.0844,0.062 0.339341,0.11886 l 0.10852,0.0241 q 0.337619,0.0724 0.478867,0.20498 0.142972,0.13092 0.142972,0.36691 0,0.26871 -0.213596,0.42546 -0.211873,0.15676 -0.583942,0.15676 -0.155029,0 -0.323838,-0.031 -0.167087,-0.0293 -0.353122,-0.0896 v -0.32729 q 0.175699,0.0913 0.346231,0.13781 0.170532,0.0448 0.337619,0.0448 0.223931,0 0.344509,-0.0758 0.120578,-0.0775 0.120578,-0.21704 0,-0.12919 -0.08785,-0.19809 -0.08613,-0.0689 -0.380682,-0.13264 l -0.110243,-0.0258 q -0.294555,-0.062 -0.425468,-0.18948 -0.130914,-0.1292 -0.130914,-0.35313 0,-0.27216 0.192925,-0.4203 0.192925,-0.14814 0.547769,-0.14814 0.1757,0 0.330729,0.0258 0.155029,0.0258 0.285942,0.0775 z"/>
      <path id="path4452" style="fill:#000000;stroke:none;stroke-width:0.264583px" d="m 41.912576,194.88279 h 0.316948 v 1.92925 h -0.316948 z m 0,-0.75103 h 0.316948 v 0.40136 h -0.316948 z"/>
      <path id="path4454" style="fill:#000000;stroke:none;stroke-width:0.264583px" d="m 43.204484,194.33502 v 0.54777 h 0.652844 v 0.24633 h -0.652844 v 1.0473 q 0,0.23599 0.06373,0.30317 0.06546,0.0672 0.26355,0.0672 h 0.32556 v 0.26527 h -0.32556 q -0.366902,0 -0.506428,-0.13608 -0.139526,-0.1378 -0.139526,-0.49954 v -1.0473 h -0.23254 v -0.24633 h 0.232544 v -0.54777 z"/>
      <path id="path4456" style="fill:#000000;stroke:none;stroke-width:0.264583px" d="m 46.275779,195.84225 q -0.384128,0 -0.532267,0.0879 -0.148138,0.0879 -0.148138,0.29972 0,0.16881 0.110242,0.26872 0.111966,0.0982 0.303168,0.0982 0.263549,0 0.422023,-0.18603 0.160197,-0.18776 0.160197,-0.49782 v -0.0706 z m 0.632173,-0.13091 v 1.1007 h -0.316948 v -0.29283 q -0.10852,0.1757 -0.270439,0.2601 -0.161919,0.0827 -0.396185,0.0827 -0.296278,0 -0.471978,-0.16537 -0.173976,-0.16708 -0.173976,-0.44614 0,-0.32556 0.21704,-0.49092 0.218763,-0.16537 0.651122,-0.16537 h 0.444416 v -0.031 q 0,-0.21877 -0.144694,-0.33762 -0.142971,-0.12058 -0.403075,-0.12058 -0.165364,0 -0.322116,0.0396 -0.156751,0.0396 -0.301445,0.11886 v -0.29284 q 0.173977,-0.0672 0.337619,-0.0999 0.163641,-0.0345 0.31867,-0.0345 0.418579,0 0.625284,0.21704 0.206705,0.21705 0.206705,0.65802 z"/>
      <path id="path4458" style="fill:#000000;stroke:none;stroke-width:0.264583px" d="m 49.064579,195.25314 q 0.118855,-0.2136 0.28422,-0.31523 0.165364,-0.10163 0.389295,-0.10163 0.301445,0 0.465087,0.21188 0.163641,0.21015 0.163641,0.59944 v 1.16444 h -0.31867 v -1.1541 q 0,-0.27733 -0.09819,-0.41169 -0.09819,-0.13436 -0.299723,-0.13436 -0.246324,0 -0.389295,0.16364 -0.142971,0.16364 -0.142971,0.44614 v 1.09037 h -0.318671 v -1.1541 q 0,-0.27905 -0.09819,-0.41169 -0.09819,-0.13436 -0.303168,-0.13436 -0.242878,0 -0.385849,0.16537 -0.142972,0.16364 -0.142972,0.44441 v 1.09037 h -0.31867 v -1.92925 h 0.31867 v 0.29973 q 0.108521,-0.17743 0.260105,-0.26183 0.151583,-0.0844 0.360011,-0.0844 0.210151,0 0.356567,0.1068 0.148139,0.1068 0.218763,0.31006 z"/>
      <path id="path4460" style="fill:#000000;stroke:none;stroke-width:0.264583px" d="m 52.650916,195.76818 v 0.15503 h -1.457272 q 0.02067,0.32728 0.19637,0.49954 0.177422,0.17053 0.492647,0.17053 0.18259,0 0.353122,-0.0448 0.172254,-0.0448 0.341063,-0.13436 v 0.29973 q -0.170531,0.0723 -0.349676,0.11024 -0.179145,0.0379 -0.363457,0.0379 -0.461642,0 -0.732081,-0.26872 -0.268717,-0.26872 -0.268717,-0.72691 0,-0.4737 0.254937,-0.75103 0.256659,-0.27906 0.69074,-0.27906 0.389295,0 0.614948,0.2515 0.227376,0.24976 0.227376,0.6804 z m -0.316948,-0.093 q -0.0034,-0.2601 -0.146416,-0.41513 -0.141249,-0.15503 -0.375515,-0.15503 -0.265272,0 -0.425468,0.14986 -0.158474,0.14986 -0.18259,0.42203 z"/>
      <path id="path4462" style="fill:#000000;stroke:none;stroke-width:0.264583px" d="m 53.484624,194.33502 v 0.54777 h 0.652844 v 0.24633 h -0.652844 v 1.0473 q 0,0.23599 0.06373,0.30317 0.06546,0.0672 0.26355,0.0672 h 0.32556 v 0.26527 h -0.32556 q -0.366902,0 -0.506428,-0.13608 -0.139526,-0.1378 -0.139526,-0.49954 v -1.0473 h -0.23254 v -0.24633 h 0.232544 v -0.54777 z"/>
    </g><svg:g style="font-size:3.52777px;line-height:125%;font-family:sans-serif;letter-spacing:0px;word-spacing:0px;fill:none;stroke:none;stroke-width:0.264583px;stroke-linecap:butt;stroke-linejoin:miter;stroke-opacity:1" aria-label="Lorem ipsum dolor sit amet" id="g5447">
      <path d="M 81.0701 179.872 L 81.0983 179.487 L 83.371 179.653 L 83.4724 178.265 L 83.7646 178.286 L 83.6351 180.06 Z" style="fill:#000000;stroke:none;stroke-width:0.264583px" id="path4420"/>
      <path d="M 82.1593 176.982 C 82.1369 177.17 82.1879 177.357 82.3127 177.476 C 82.4365 177.595 82.6134 177.663 82.8436 177.68 C 83.0738 177.697 83.2593 177.656 83.4 177.557 C 83.5397 177.457 83.6144 177.347 83.6369 177.158 C 83.6591 176.972 83.6106 176.817 83.4914 176.692 C 83.3721 176.567 83.1985 176.491 82.9705 176.464 C 82.7436 176.437 82.5575 176.47 82.4122 176.563 C 82.2658 176.656 82.1815 176.796 82.1593 176.982 Z M 81.8925 176.95 C 81.9288 176.646 82.0462 176.418 82.2448 176.266 C 82.4434 176.113 82.7 176.056 83.0147 176.093 C 83.3283 176.131 83.5642 176.247 83.7224 176.442 C 83.8796 176.637 83.94 176.886 83.9037 177.19 C 83.8672 177.496 83.769 177.683 83.5776 177.845 C 83.3852 178.005 83.1315 178.073 82.8165 178.05 C 82.5004 178.027 82.2594 177.922 82.0934 177.736 C 81.9275 177.549 81.856 177.256 81.8925 176.95 Z" style="fill:#000000;stroke:none;stroke-width:0.264583px" id="path4422"/>
      <path d="M 82.7098 174.145 C 82.6803 174.178 82.6554 174.217 82.6352 174.261 C 82.6143 174.303 82.5971 174.351 82.5837 174.406 C 82.5362 174.599 82.5584 174.804 82.6546 174.93 C 82.7499 175.055 82.9049 175.137 83.1196 175.176 L 84.1195 175.356 L 84.0567 175.704 L 82.1587 175.362 L 82.2216 175.014 L 82.5168 175.067 C 82.4147 174.973 82.3465 174.863 82.3122 174.736 C 82.2768 174.609 82.2941 174.403 82.3346 174.238 C 82.3403 174.214 82.3484 174.189 82.3586 174.161 C 82.3675 174.133 82.3792 174.102 82.3936 174.069 Z" style="fill:#000000;stroke:none;stroke-width:0.264583px" id="path4424"/>
      <path d="M 84.0528 172.294 L 84.1881 172.37 L 83.5696 173.843 C 83.7829 173.891 83.9467 173.894 84.0996 173.812 C 84.2518 173.728 84.3683 173.576 84.4493 173.357 C 84.4962 173.231 84.5239 173.158 84.5489 173.031 C 84.5744 172.903 84.568 172.819 84.5767 172.68 L 84.8388 172.826 C 84.8194 172.96 84.828 173.022 84.7962 173.154 C 84.7644 173.285 84.7417 173.342 84.6943 173.471 C 84.5757 173.791 84.4209 173.962 84.1915 174.102 C 83.9626 174.241 83.7019 174.266 83.4095 174.178 C 83.1071 174.087 82.8947 173.924 82.7722 173.69 C 82.649 173.454 82.6619 173.127 82.7734 172.826 C 82.8735 172.555 83.1081 172.248 83.3359 172.184 C 83.5633 172.118 83.8023 172.155 84.053 172.294 Z M 83.7989 172.571 C 83.64 172.502 83.4916 172.494 83.3537 172.548 C 83.2164 172.6 83.0867 172.752 83.0265 172.915 C 82.9584 173.099 82.9303 173.302 82.9917 173.444 C 83.0535 173.586 83.1686 173.691 83.3372 173.76 Z" style="fill:#000000;stroke:none;stroke-width:0.264583px" id="path4426"/>
      <path d="M 85.2542 170.201 C 85.2411 170.034 85.347 169.846 85.4194 169.727 C 85.4918 169.607 85.6882 169.456 85.8395 169.388 C 86.0433 169.297 86.3094 169.257 86.4696 169.352 C 86.6294 169.445 86.7512 169.615 86.8347 169.861 L 87.2097 170.963 L 86.9613 171.05 L 86.4897 169.997 C 86.4142 169.828 86.3249 169.718 86.222 169.666 C 86.119 169.614 85.9994 169.619 85.8632 169.68 C 85.6967 169.754 85.5406 169.921 85.5033 170.068 C 85.4659 170.215 85.4677 170.392 85.579 170.543 L 86.223 171.422 L 85.9375 171.632 L 85.2558 170.701 C 85.1459 170.551 85.0355 170.462 84.9246 170.434 C 84.813 170.405 84.6418 170.503 84.5307 170.607 C 84.3991 170.729 84.2884 170.931 84.3034 171.083 C 84.3176 171.234 84.3957 171.371 84.538 171.492 L 85.3666 172.2 L 85.2161 172.402 L 83.6273 171.31 L 83.9007 170.948 L 84.1286 171.143 C 84.0909 171.005 84.0872 170.875 84.1173 170.753 C 84.1475 170.631 84.3046 170.442 84.4175 170.336 C 84.5313 170.23 84.7459 170.101 84.8754 170.095 C 85.006 170.087 85.1324 170.123 85.2546 170.201 Z" style="fill:#000000;stroke:none;stroke-width:0.264583px" id="path4428"/>
      <path d="M 88.7311 168.733 L 89.156 168.727 L 89.166 170.656 L 88.8881 170.656 Z M 88.67 167.985 L 89.152 167.976 L 89.1541 168.378 L 88.7027 168.385 Z" style="fill:#000000;stroke:none;stroke-width:0.264583px" id="path4430"/>
      <path d="M 90.1323 170.435 L 89.9824 171.448 L 89.7611 171.418 L 89.9485 168.762 L 90.3722 168.815 L 90.3295 169.103 C 90.4195 169.001 90.5241 168.93 90.6432 168.892 C 90.7638 168.853 90.9761 168.876 91.129 168.911 C 91.3827 168.969 91.6341 169.148 91.7321 169.374 C 91.8314 169.601 91.8558 169.877 91.7391 170.157 C 91.6224 170.436 91.4995 170.645 91.2875 170.773 C 91.0767 170.901 90.9297 170.943 90.676 170.885 C 90.5231 170.85 90.4754 170.801 90.3711 170.73 C 90.2683 170.658 90.1887 170.56 90.1323 170.436 Z M 91.3949 170.037 C 91.4656 169.815 91.4698 169.625 91.4077 169.466 C 91.3471 169.307 91.1673 169.192 90.9858 169.15 C 90.8042 169.109 90.5937 169.135 90.4682 169.251 C 90.3441 169.366 90.265 169.539 90.2309 169.769 C 90.1968 170 90.2223 170.189 90.3076 170.336 C 90.3943 170.482 90.4698 170.565 90.6514 170.607 C 90.833 170.649 90.9343 170.605 91.0752 170.512 C 91.2177 170.417 91.3243 170.259 91.3949 170.037 Z" style="fill:#000000;stroke:none;stroke-width:0.264583px" id="path4432"/>
      <path d="M 93.9846 170.458 L 93.7911 170.688 C 93.7447 170.588 93.688 170.495 93.6209 170.409 C 93.5539 170.322 93.4041 170.203 93.3087 170.139 C 93.1636 170.041 92.9793 169.95 92.8789 169.952 C 92.7797 169.953 92.7074 169.997 92.6621 170.082 C 92.6276 170.147 92.628 170.213 92.6632 170.28 C 92.699 170.345 92.8044 170.456 92.9401 170.592 L 93.0268 170.679 C 93.2076 170.859 93.3004 171.039 93.3233 171.174 C 93.3479 171.308 93.3095 171.436 93.2081 171.556 C 93.0926 171.693 92.9407 171.75 92.7525 171.728 C 92.5652 171.707 92.4511 171.682 92.2222 171.529 C 92.1269 171.465 92.1186 171.447 92.0179 171.37 C 91.9178 171.294 91.9011 171.234 91.7894 171.144 L 91.9153 170.843 C 92.012 170.949 92.0452 171.033 92.1421 171.12 C 92.2396 171.206 92.2734 171.244 92.3762 171.313 C 92.5139 171.405 92.573 171.402 92.6738 171.421 C 92.7754 171.439 92.8561 171.413 92.9161 171.342 C 92.9716 171.276 92.9894 171.204 92.9693 171.127 C 92.9501 171.051 92.8776 170.95 92.7201 170.793 L 92.6328 170.704 C 92.4746 170.548 92.3631 170.435 92.3174 170.314 C 92.2723 170.193 92.2605 170.055 92.318 169.917 C 92.3878 169.75 92.569 169.684 92.7415 169.664 C 92.914 169.644 93.2031 169.749 93.4213 169.895 C 93.5294 169.968 93.7149 170.108 93.7916 170.195 C 93.8682 170.282 93.9324 170.37 93.9843 170.459 Z" style="fill:#000000;stroke:none;stroke-width:0.264583px" id="path4434"/>
      <path d="M 93.698 171.748 L 94.5493 170.95 L 94.8291 171.314 L 93.9033 172.004 C 93.757 172.113 93.6706 172.227 93.6442 172.345 C 93.6187 172.463 93.5989 172.528 93.6797 172.664 C 93.7768 172.827 93.8615 172.874 94.007 172.927 C 94.153 172.981 94.3112 172.967 94.4814 172.887 L 95.4692 172.42 L 95.6373 172.82 L 93.8293 173.491 L 93.7258 173.244 L 93.9942 173.117 C 93.8519 173.09 93.7305 173.037 93.63 172.959 C 93.5312 172.882 93.4812 172.869 93.4049 172.741 C 93.2791 172.529 93.2789 172.428 93.3132 172.243 C 93.3474 172.059 93.5046 171.929 93.6981 171.748 Z M 95.2138 171.821 Z" style="fill:#000000;stroke:none;stroke-width:0.264583px" id="path4436"/>
      <path d="M 95.8309 175.44 C 95.98 175.516 96.0985 175.658 96.1694 175.779 C 96.2404 175.9 96.278 176.043 96.2823 176.209 C 96.2882 176.432 96.1958 176.678 96.0486 176.792 C 95.9026 176.906 95.7 176.956 95.4409 176.943 L 94.2784 176.883 L 94.2965 176.53 L 95.4485 176.589 C 95.6331 176.598 95.7719 176.569 95.8651 176.501 C 95.9582 176.433 96.008 176.268 96.0041 176.119 C 95.9993 175.936 95.9436 175.756 95.8262 175.659 C 95.7089 175.563 95.5564 175.522 95.3687 175.537 L 94.2822 175.626 L 94.2533 175.273 L 95.4033 175.179 C 95.5887 175.164 95.7193 175.087 95.7965 175.002 C 95.875 174.917 95.9035 174.8 95.882 174.65 C 95.8567 174.471 95.7644 174.297 95.6348 174.216 C 95.5063 174.134 95.3505 174.113 95.1673 174.151 L 94.1004 174.374 L 94.0299 174.098 L 95.8848 173.57 L 95.9881 173.979 L 95.6946 174.041 C 95.8268 174.095 95.9319 174.172 96.01 174.27 C 96.088 174.368 96.147 174.558 96.1687 174.711 C 96.1907 174.865 96.1815 175.058 96.1194 175.172 C 96.0574 175.288 95.9611 175.377 95.8303 175.44 Z" style="fill:#000000;stroke:none;stroke-width:0.264583px" id="path4438"/>
      <path d="M 95.2002 180.436 L 96.1809 180.79 L 96.0614 181.121 L 93.5415 180.212 L 93.661 179.881 L 93.9337 179.979 C 93.8508 179.871 93.8022 179.753 93.7879 179.628 C 93.7741 179.503 93.7752 179.468 93.8138 179.315 C 93.8769 179.063 94.0185 178.881 94.2387 178.768 C 94.4585 178.656 94.7154 178.637 95.0093 178.711 C 95.3032 178.785 95.5206 178.923 95.6614 179.126 C 95.802 179.329 95.8407 179.557 95.7776 179.808 C 95.739 179.961 95.6265 180.172 95.5354 180.258 C 95.4451 180.346 95.3333 180.406 95.2002 180.436 Z M 94.9207 179.064 C 94.6947 179.007 94.5042 179.014 94.3492 179.084 C 94.1951 179.156 94.1313 179.214 94.068 179.389 C 94.0048 179.564 94.0171 179.724 94.1049 179.87 C 94.1937 180.016 94.3478 180.129 94.567 180.208 C 94.7861 180.287 94.976 180.298 95.1366 180.242 C 95.2982 180.187 95.4106 180.071 95.4738 179.896 C 95.5371 179.721 95.516 179.488 95.413 179.351 C 95.3108 179.217 95.1466 179.121 94.9207 179.064 Z" style="fill:#000000;stroke:none;stroke-width:0.264583px" id="path4440"/>
      <path d="M 94.4132 182.289 C 94.5037 182.123 94.5168 181.96 94.4525 181.8 C 94.3892 181.641 94.2563 181.505 94.0538 181.395 C 93.8512 181.284 93.6655 181.245 93.4966 181.276 C 93.3282 181.309 93.1984 181.409 93.1072 181.576 C 93.0173 181.74 93.0045 181.903 93.0688 182.063 C 93.1331 182.223 93.266 182.358 93.4676 182.468 C 93.6681 182.578 93.8531 182.616 94.0226 182.584 C 94.1931 182.552 94.3233 182.454 94.4132 182.289 Z M 94.649 182.418 C 94.5022 182.686 94.3083 182.855 94.0673 182.922 C 93.8263 182.99 93.5678 182.946 93.2887 182.796 C 93.0105 182.646 92.8358 182.449 92.7614 182.209 C 92.688 181.97 92.7247 181.716 92.8714 181.447 C 93.0188 181.177 93.1891 181.069 93.4248 180.985 C 93.661 180.902 93.9226 180.927 94.2095 181.059 C 94.4975 181.191 94.6866 181.373 94.777 181.605 C 94.8668 181.839 94.7964 182.148 94.649 182.418 Z" style="fill:#000000;stroke:none;stroke-width:0.264583px" id="path4442"/>
      <path d="M 94.5259 184.121 L 94.4444 184.306 L 91.9826 183.25 L 92.1643 182.852 Z" style="fill:#000000;stroke:none;stroke-width:0.264583px" id="path4444"/>
      <path d="M 93.4916 184.62 C 93.3704 184.476 93.3783 184.64 93.2212 184.569 C 93.0652 184.498 92.8908 184.54 92.6607 184.551 C 92.4305 184.561 92.2709 184.715 92.1713 184.854 C 92.0731 184.994 92.2307 185.43 92.3527 185.575 C 92.473 185.719 92.8029 185.894 92.9674 185.842 C 93.1318 185.79 93.2996 185.681 93.4025 185.475 C 93.5049 185.271 93.5777 185.102 93.5581 184.931 C 93.5391 184.758 93.6119 184.764 93.4916 184.62 Z M 93.6972 184.448 C 93.8937 184.682 93.7594 184.622 93.8353 184.86 C 93.9112 185.099 93.8551 185.341 93.7398 185.636 C 93.6249 185.93 93.4052 186.107 93.1681 186.19 C 92.9316 186.272 92.3436 185.982 92.147 185.748 C 91.9497 185.512 91.743 184.658 91.9134 184.475 C 92.0851 184.293 92.3653 184.138 92.6779 184.18 C 92.9917 184.222 93.2107 184.24 93.3975 184.405 C 93.5844 184.571 93.4999 184.213 93.6972 184.448 Z" style="fill:#000000;stroke:none;stroke-width:0.264583px" id="path4446"/>
      <path d="M 95.5288 185.342 C 95.4895 185.321 95.5254 185.308 95.4798 185.293 C 95.4356 185.277 95.3856 185.265 95.3299 185.258 C 95.1326 185.233 94.9733 185.271 94.8522 185.374 C 94.7324 185.475 94.6838 185.634 94.6357 185.847 L 94.4117 186.838 L 94.0004 186.741 L 94.5572 184.895 L 94.8368 184.957 L 94.7707 185.25 C 94.8687 185.152 94.9037 185.063 95.0285 185.022 C 95.1534 184.98 95.3 184.97 95.4683 184.992 C 95.4923 184.995 95.5187 185 95.5474 185.007 C 95.5762 185.013 95.4958 185.01 95.5314 185.017 Z" style="fill:#000000;stroke:none;stroke-width:0.264583px" id="path4448"/>
      <path d="M 98.189 184.785 L 98.282 185.071 C 98.1731 185.058 98.1206 185.049 98.011 185.051 C 97.9014 185.053 97.7907 185.068 97.679 185.094 C 97.5088 185.134 97.4237 185.17 97.3454 185.233 C 97.2684 185.296 97.2384 185.375 97.2553 185.47 C 97.2681 185.542 97.3091 185.594 97.3781 185.625 C 97.4469 185.654 97.5682 185.679 97.7607 185.673 L 97.8836 185.669 C 98.1381 185.658 98.322 185.673 98.4488 185.724 C 98.5765 185.774 98.6648 185.874 98.7135 186.024 C 98.769 186.194 98.7378 186.353 98.6198 186.501 C 98.503 186.649 98.2272 186.773 97.959 186.836 C 97.8472 186.863 97.6699 186.879 97.5432 186.881 C 97.4179 186.883 97.2064 186.876 97.0654 186.849 L 97.0346 186.524 C 97.1699 186.572 97.3571 186.599 97.4869 186.608 C 97.6165 186.615 97.7851 186.605 97.9055 186.577 C 98.067 186.539 98.1853 186.485 98.2606 186.415 C 98.3357 186.344 98.4061 186.247 98.3773 186.159 C 98.3506 186.077 98.2745 186.032 98.2006 186.003 C 98.1279 185.973 97.9805 185.962 97.7584 185.971 L 97.626 185.969 C 97.404 185.967 97.2373 185.931 97.1328 185.856 C 97.0281 185.779 96.9688 185.667 96.9547 185.518 C 96.9376 185.338 96.9955 185.192 97.1284 185.08 C 97.2613 184.968 97.3213 184.906 97.5771 184.846 C 97.7037 184.816 97.8249 184.796 97.9407 184.786 C 98.0564 184.777 98.0863 184.783 98.1892 184.786 Z" style="fill:#000000;stroke:none;stroke-width:0.264583px" id="path4450"/>
      <path d="M 98.8153 184.521 L 99.0532 184.415 L 99.8244 186.184 L 99.4134 186.355 Z M 98.5826 183.808 L 98.753 183.727 L 98.9137 184.096 L 98.7072 184.19 Z" style="fill:#000000;stroke:none;stroke-width:0.264583px" id="path4452"/>
      <path d="M 99.7058 183.505 L 99.9641 183.988 L 100.546 183.675 L 100.677 183.884 L 100.081 184.206 L 100.574 185.129 C 100.648 185.268 100.717 185.346 100.78 185.363 C 100.843 185.38 100.94 185.353 101.069 185.284 L 101.427 185.086 L 101.568 185.311 L 101.194 185.517 C 100.955 185.646 100.768 185.694 100.634 185.663 C 100.499 185.631 100.375 185.508 100.262 185.295 L 99.7683 184.373 L 99.5834 184.454 L 99.4847 184.227 L 99.6518 184.155 L 99.3935 183.672 Z" style="fill:#000000;stroke:none;stroke-width:0.264583px" id="path4454"/>
      <path d="M 103.262 182.96 C 103.038 183.136 102.901 183.28 102.851 183.394 C 102.801 183.508 102.805 183.623 102.887 183.738 C 102.952 183.83 103.037 183.879 103.142 183.887 C 103.247 183.892 103.382 183.824 103.494 183.737 C 103.648 183.617 103.732 183.471 103.748 183.301 C 103.765 183.13 103.709 182.963 103.582 182.8 L 103.538 182.744 Z M 103.722 182.418 L 104.438 183.254 L 104.136 183.508 L 103.955 183.277 C 103.964 183.419 103.939 183.549 103.879 183.667 C 103.819 183.785 103.72 183.897 103.584 184.004 C 103.411 184.139 103.196 184.226 103.026 184.211 C 102.857 184.194 102.718 184.11 102.611 183.958 C 102.486 183.781 102.457 183.601 102.525 183.418 C 102.593 183.234 102.744 183.051 102.996 182.854 L 103.385 182.549 L 103.366 182.525 C 103.276 182.41 103.164 182.354 103.031 182.358 C 102.898 182.36 102.756 182.42 102.604 182.539 C 102.508 182.615 102.422 182.699 102.347 182.791 C 102.272 182.884 102.227 182.956 102.17 183.061 L 102.001 182.823 C 102.081 182.712 102.128 182.643 102.21 182.551 C 102.291 182.458 102.377 182.376 102.468 182.306 C 102.712 182.114 102.91 182.058 103.12 182.068 C 103.331 182.078 103.532 182.195 103.723 182.418 Z" style="fill:#000000;stroke:none;stroke-width:0.264583px" id="path4456"/>
      <path d="M 105.135 180.474 C 105.093 180.311 105.091 180.163 105.127 180.027 C 105.164 179.892 105.24 179.765 105.355 179.646 C 105.51 179.485 105.635 179.456 105.821 179.454 C 106.006 179.451 106.198 179.534 106.396 179.701 L 107.288 180.45 L 107.015 180.771 L 106.185 179.969 C 106.052 179.84 105.928 179.771 105.813 179.761 C 105.698 179.751 105.589 179.8 105.485 179.908 C 105.359 180.039 105.298 180.18 105.302 180.332 C 105.307 180.484 105.377 180.626 105.513 180.756 L 106.297 181.514 L 106.051 181.769 L 105.221 180.967 C 105.087 180.838 104.963 180.768 104.849 180.759 C 104.734 180.749 104.656 180.775 104.545 180.878 C 104.413 181 104.346 181.138 104.343 181.291 C 104.339 181.443 104.401 181.587 104.529 181.725 L 105.27 182.524 L 104.981 182.79 L 103.726 181.325 L 103.958 181.11 L 104.162 181.33 C 104.141 181.188 104.152 181.059 104.196 180.941 C 104.24 180.824 104.284 180.755 104.391 180.644 C 104.499 180.532 104.617 180.462 104.743 180.433 C 104.871 180.404 105.001 180.418 105.135 180.474 Z" style="fill:#000000;stroke:none;stroke-width:0.264583px" id="path4458"/>
      <path d="M 108.064 177.794 L 108.188 177.887 L 107.198 179.174 C 107.375 179.303 107.549 179.354 107.721 179.329 C 107.893 179.301 108.071 179.159 108.211 178.972 C 108.292 178.864 108.359 178.75 108.411 178.631 C 108.463 178.511 108.503 178.383 108.531 178.247 L 108.771 178.427 C 108.734 178.557 108.685 178.683 108.626 178.804 C 108.566 178.926 108.496 179.041 108.414 179.15 C 108.208 179.424 107.933 179.62 107.667 179.658 C 107.402 179.695 107.153 179.616 106.919 179.419 C 106.677 179.216 106.546 178.983 106.526 178.719 C 106.506 178.454 106.564 178.241 106.757 177.984 C 106.93 177.753 107.133 177.621 107.368 177.588 C 107.602 177.553 107.834 177.622 108.064 177.794 Z M 107.778 178.02 C 107.638 177.918 107.494 177.878 107.348 177.901 C 107.203 177.923 107.078 178.003 106.974 178.142 C 106.856 178.299 106.825 178.425 106.825 178.58 C 106.826 178.735 106.89 178.877 107.017 179.007 Z" style="fill:#000000;stroke:none;stroke-width:0.264583px" id="path4460"/>
      <path d="M 107.428 176.217 L 107.877 176.533 L 108.294 175.939 L 108.496 176.081 L 108.079 176.675 L 108.935 177.277 C 109.064 177.367 109.16 177.406 109.224 177.393 C 109.288 177.38 109.363 177.313 109.447 177.193 L 109.655 176.896 L 109.872 177.049 L 109.664 177.345 C 109.507 177.567 109.362 177.694 109.229 177.727 C 109.094 177.759 108.928 177.705 108.731 177.566 L 107.875 176.964 L 107.726 177.176 L 107.524 177.034 L 107.673 176.822 L 107.225 176.507 Z" style="fill:#000000;stroke:none;stroke-width:0.264583px" id="path4462"/>
    </svg:g>
    
    <path sodipodi:nodetypes="csssssssssssssssssssssssssssssssssc" d="m 62.475185,225.28362 c 0,0 -0.165768,0.008 -0.477112,0.0234 -0.311344,0.0153 -0.768264,0.0377 -1.35057,0.0662 -0.582304,0.0285 -1.289995,0.0632 -2.102879,0.10293 -0.812883,0.0398 -1.73096,0.0846 -2.73404,0.13352 -1.003079,0.0489 -2.09116,0.10192 -3.244051,0.15797 -1.152891,0.056 -2.370593,0.11517 -3.632915,0.17631 -1.262321,0.0612 -2.569262,0.12435 -3.90063,0.18856 -1.331368,0.0642 -2.687163,0.12943 -4.047195,0.19466 -1.360033,0.0652 -2.724301,0.13045 -4.072613,0.19465 -1.348314,0.0642 -2.680671,0.1274 -3.976883,0.18855 -1.296211,0.0611 -2.556275,0.12027 -3.760002,0.17632 -1.203726,0.056 -2.351114,0.10905 -3.421973,0.15797 -1.070859,0.0489 -2.065188,0.0938 -2.962796,0.13351 -0.897609,0.0398 -1.698495,0.0744 -2.38247,0.10294 -0.683975,0.0285 -1.251038,0.051 -1.680996,0.0662 -0.429959,0.0153 -0.722814,0.0235 -0.858374,0.0235 -2.168951,0 -3.927232,-0.93451 -3.927231,-2.08727 3e-6,-1.15277 1.758283,-2.08727 3.927231,-2.08727 0.13556,0 0.428414,0.008 0.858373,0.0235 0.429958,0.0153 0.997021,0.0377 1.680996,0.0662 0.683974,0.0285 1.484862,0.0632 2.38247,0.10294 0.897608,0.0398 1.891937,0.0846 2.962796,0.13351 1.070858,0.0489 2.218247,0.10191 3.421973,0.15797 1.203727,0.056 2.463791,0.11517 3.760002,0.17631 1.296211,0.0611 2.628569,0.12434 3.976882,0.18855 1.348313,0.0642 2.712582,0.12943 4.072613,0.19466 1.360032,0.0652 2.715829,0.13046 4.047196,0.19466 1.331368,0.0642 2.638309,0.1274 3.90063,0.18855 1.262322,0.0611 2.480024,0.12026 3.632915,0.17631 1.152892,0.0561 2.240973,0.10906 3.244052,0.15798 1.00308,0.0489 1.921156,0.0938 2.73404,0.13351 0.812884,0.0398 1.520574,0.0744 2.102879,0.10294 0.582306,0.0285 1.039226,0.051 1.35057,0.0662 0.311344,0.0153 0.477112,0.0235 0.477112,0.0235 z" style="fill:#000000;fill-opacity:1;stroke:#000000;stroke-width:0.264999;stroke-linecap:round;stroke-linejoin:round;stroke-miterlimit:4;stroke-dasharray:none;stroke-opacity:1" id="path4585"/>
    <text xml:space="preserve" style="font-size:3.52777px;line-height:125%;font-family:sans-serif;letter-spacing:0px;word-spacing:0px;fill:none;stroke:#000000;stroke-width:0.264583px;stroke-linecap:butt;stroke-linejoin:miter;stroke-opacity:1" x="25.933815" y="28.081203" id="text1929"><tspan sodipodi:role="line" id="tspan1927" x="25.933815" y="28.081203" style="stroke-width:0.264583px"/></text>
    <text xml:space="preserve" style="font-size:3.52777px;line-height:125%;font-family:sans-serif;letter-spacing:0px;word-spacing:0px;fill:none;stroke:#000000;stroke-width:0.264583px;stroke-linecap:butt;stroke-linejoin:miter;stroke-opacity:1" x="23.290878" y="30.558954" id="text1933"><tspan sodipodi:role="line" id="tspan1931" x="23.290878" y="30.558954" style="fill:#000000;stroke:none;stroke-width:0.264583px"/></text>
    <text xml:space="preserve" style="font-size:3.52777px;line-height:125%;font-family:sans-serif;letter-spacing:0px;word-spacing:0px;fill:none;stroke:#000000;stroke-width:0.264583px;stroke-linecap:butt;stroke-linejoin:miter;stroke-opacity:1" x="65.082314" y="39.644051" id="text1937"><tspan sodipodi:role="line" id="tspan1935" x="65.082314" y="39.644051" style="stroke-width:0.264583px"/></text>
    <text xml:space="preserve" style="font-stretch:condensed;font-size:3.52778px;line-height:125%;font-family:Impact;-inkscape-font-specification:'Impact Condensed';fill:#000000;stroke:none;stroke-width:0.4;stroke-linecap:round;stroke-linejoin:round;stroke-miterlimit:4;stroke-dasharray:none;stroke-opacity:1" x="42.947716" y="32.706341" id="text1945"><tspan sodipodi:role="line" id="tspan1943" x="42.947716" y="32.706341" style="font-style:normal;font-variant:normal;font-weight:normal;font-stretch:normal;font-size:3.52778px;font-family:sans-serif;-inkscape-font-specification:sans-serif;stroke-width:0.4"/></text>
    <text xml:space="preserve" style="font-style:normal;font-variant:normal;font-weight:normal;font-stretch:normal;font-size:2.11667px;line-height:125%;font-family:sans-serif;-inkscape-font-specification:sans-serif;fill:#000000;stroke:none;stroke-width:0.4;stroke-linecap:round;stroke-linejoin:round;stroke-miterlimit:4;stroke-dasharray:none;stroke-opacity:1" x="8.8563013" y="8.7257614" id="text1949"><tspan sodipodi:role="line" id="tspan1947" x="8.8563013" y="8.7257614" style="font-size:2.11667px;stroke-width:0.4">Settings: Repeated, Snake, no distance. Tests a path with fillrule=evenodd</tspan></text>
    <text id="text1949-0" y="72.169098" x="8.8563013" style="font-style:normal;font-variant:normal;font-weight:normal;font-stretch:normal;font-size:2.11667px;line-height:125%;font-family:sans-serif;-inkscape-font-specification:sans-serif;fill:#000000;stroke:none;stroke-width:0.4;stroke-linecap:round;stroke-linejoin:round;stroke-miterlimit:4;stroke-dasharray:none;stroke-opacity:1" xml:space="preserve"><tspan style="font-size:2.11667px;stroke-width:0.4" y="72.169098" x="8.8563013" id="tspan1947-9" sodipodi:role="line">Settings: Repeated, Stretched, Ribbon, Vertical. Tests a group pattern with multiple nested transforms</tspan></text>
    <text xml:space="preserve" style="font-style:normal;font-variant:normal;font-weight:normal;font-stretch:normal;font-size:2.11667px;line-height:125%;font-family:sans-serif;-inkscape-font-specification:sans-serif;fill:#000000;stroke:none;stroke-width:0.4;stroke-linecap:round;stroke-linejoin:round;stroke-miterlimit:4;stroke-dasharray:none;stroke-opacity:1" x="8.8563013" y="118.87952" id="text1949-0-0"><tspan sodipodi:role="line" id="tspan1947-9-3" x="8.8563013" y="118.87952" style="font-size:2.11667px;stroke-width:0.4">Settings: Repeated, Stretched, Ribbon. Tests a group pattern with multiple nested clones</tspan></text>
    <text id="text1949-0-0-0" y="162.82248" x="8.8563013" style="font-style:normal;font-variant:normal;font-weight:normal;font-stretch:normal;font-size:2.11667px;line-height:125%;font-family:sans-serif;-inkscape-font-specification:sans-serif;fill:#000000;stroke:none;stroke-width:0.4;stroke-linecap:round;stroke-linejoin:round;stroke-miterlimit:4;stroke-dasharray:none;stroke-opacity:1" xml:space="preserve"><tspan style="font-size:2.11667px;stroke-width:0.4" y="162.82248" x="8.8563013" id="tspan1947-9-3-9" sodipodi:role="line">Settings: Single, Stretched, Snake. Tests putting a text (converted to a path) on a path and stretching it to fit its length</tspan></text>
    <path id="path2408" style="fill:url(#radialGradient2465);fill-opacity:1;stroke:#000000;stroke-width:0.264583px;stroke-linecap:butt;stroke-linejoin:miter;stroke-opacity:1" d="m 32.372223,262.63935 c -0.121189,2.58893 -1.345509,4.1846 0,8.09356 1.573242,-0.30788 1.283761,-3.44523 0,-8.09356 z m 2.641701,3.2644 c -0.94687,2.72678 -1.337789,4.6197 -0.686779,4.94957 0.910738,-2.26913 0.519319,-3.35561 0.686779,-4.94957 z m -4.488098,1.28003 c -0.0819,2.31633 0.0998,3.83226 0.775663,3.84834 0.178181,-1.96993 -0.477734,-2.6275 -0.775663,-3.84834 z"/>
    <text xml:space="preserve" style="font-style:normal;font-variant:normal;font-weight:normal;font-stretch:normal;font-size:2.11667px;line-height:125%;font-family:sans-serif;-inkscape-font-specification:sans-serif;fill:#000000;stroke:none;stroke-width:0.4;stroke-linecap:round;stroke-linejoin:round;stroke-miterlimit:4;stroke-dasharray:none;stroke-opacity:1" x="8.8563013" y="258.26703" id="text1949-0-0-0-4"><tspan sodipodi:role="line" id="tspan1947-9-3-9-1" x="8.8563013" y="258.26703" style="font-size:2.11667px;stroke-width:0.4">Settings: Repeated, Stretched, Snake, Space between copies=5, Normal offset=5. Tests putting a path with multiple subpaths with a gradient on a closed path</tspan></text>
    <text id="text1949-0-0-5" y="203.22389" x="8.8563013" style="font-style:normal;font-variant:normal;font-weight:normal;font-stretch:normal;font-size:2.11667px;line-height:125%;font-family:sans-serif;-inkscape-font-specification:sans-serif;fill:#000000;stroke:none;stroke-width:0.4;stroke-linecap:round;stroke-linejoin:round;stroke-miterlimit:4;stroke-dasharray:none;stroke-opacity:1" xml:space="preserve"><tspan style="font-size:2.11667px;stroke-width:0.4" y="203.22389" x="8.8563013" id="tspan1947-9-3-8" sodipodi:role="line">Settings: Single, Stretched, Snake. Tests selecting multiple sceleton paths, one consisting of multiple subpaths</tspan></text>
  </g>
</svg>