<!-- Created with Inkscape (http://www.inkscape.org/) --><svg xmlns:inkscape="http://www.inkscape.org/namespaces/inkscape" xmlns:sodipodi="http://sodipodi.sourceforge.net/DTD/sodipodi-0.dtd" xmlns="http://www.w3.org/2000/svg" xmlns:svg="http://www.w3.org/2000/svg" width="142.15878" height="96.270485" viewBox="0 0 142.15879 96.270485" version="1.1" id="svg5" inkscape:version="1.1-rc (52f87abb86, 2021-05-02)" sodipodi:docname="test_texts.svg">
  <sodipodi:namedview id="namedview7" pagecolor="#ffffff" bordercolor="#666666" borderopacity="1.0" objecttolerance="10.0" gridtolerance="10.0" guidetolerance="10.0" inkscape:pageshadow="2" inkscape:pageopacity="0.0" inkscape:pagecheckerboard="0" inkscape:document-units="px" showgrid="false" inkscape:zoom="4" inkscape:cx="94.625" inkscape:cy="57.125" inkscape:window-width="1920" inkscape:window-height="1017" inkscape:window-x="-8" inkscape:window-y="353" inkscape:window-maximized="1" inkscape:current-layer="layer1" units="px" lock-margins="true" fit-margin-top="5" fit-margin-left="5" fit-margin-right="5" fit-margin-bottom="5"/>
  <defs id="defs2">
    <rect x="106.13368" y="295.92566" width="211.01872" height="102.38778" id="rect127697"/>
  </defs>
  <g inkscape:label="Layer 1" inkscape:groupmode="layer" id="layer1" transform="translate(-8.01879, 28.4376)">
    <text xml:space="preserve" id="regular" style="font-size:3.175px;line-height:125%;font-family:Arial;-inkscape-font-specification:Arial;fill:#000000;stroke-width:0.499999;stroke-linecap:round;stroke-linejoin:round" x="13.714261" y="5.3445697"><tspan sodipodi:role="line" id="tspan107963" style="stroke-width:0.5" x="13.714261" y="5.3445697">This is a regular text</tspan><tspan sodipodi:role="line" style="stroke-width:0.5" x="13.714261" y="9.3133192" id="tspan107965">With a line break.</tspan></text><text xml:space="preserve" id="regular-transform" style="font-size:3.175px;line-height:125%;font-family:Arial;-inkscape-font-specification:Arial;fill:#000000;stroke-width:0.499999;stroke-linecap:round;stroke-linejoin:round" x="85.644661" y="-6.7999878" transform="matrix(1.1841233,0.52555662,-0.38220752,0.67486916,0,0)"><tspan sodipodi:role="line" style="stroke-width:0.5" x="85.644661" y="-6.7999878" id="tspan107965-5">This is regular text</tspan><tspan sodipodi:role="line" style="stroke-width:0.5" x="85.644661" y="-2.8312378" id="tspan166624">with a line break</tspan><tspan sodipodi:role="line" style="stroke-width:0.5" x="85.644661" y="1.1375122" id="tspan166626">and some transforms.</tspan></text><text xml:space="preserve" style="font-size:3.175px;line-height:125%;font-family:Arial;-inkscape-font-specification:Arial;white-space:pre;inline-size:24.045;fill:#000000;stroke-width:0.499999;stroke-linecap:round;stroke-linejoin:round" id="inline-size" transform="translate(13.59746,3.7093356)"><tspan x="0" y="11.480255" id="tspan192272"><tspan style="stroke-width:0.5" id="tspan192270">This is an SVG2 </tspan></tspan><tspan x="0" y="15.449005" id="tspan192276"><tspan style="stroke-width:0.5" id="tspan192274">flowed text. </tspan></tspan><tspan x="0" y="19.417755" id="tspan192284"><tspan style="stroke-width:0.5" id="tspan192278">(inlin</tspan><tspan dx="-0.27516687" style="letter-spacing:0.275167px" id="tspan192280">e siz</tspan><tspan dx="0.27516711" style="stroke-width:0.5" id="tspan192282">e)
</tspan></tspan><tspan x="0" y="23.386505" id="tspan192288"><tspan style="stroke-width:0.5" id="tspan192286">This is a line </tspan></tspan><tspan x="0" y="27.355255" id="tspan192292"><tspan style="stroke-width:0.5" id="tspan192290">break inside that </tspan></tspan><tspan x="0" y="31.324005" id="tspan192296"><tspan style="stroke-width:0.5" id="tspan192294">text.</tspan></tspan></text><text xml:space="preserve" style="font-size:3.175px;line-height:125%;font-family:Arial;-inkscape-font-specification:Arial;letter-spacing:0.0343958px;fill:#000000;stroke-width:0.499999;stroke-linecap:round;stroke-linejoin:round" x="13.432274" y="58.195934" id="kerning"><tspan sodipodi:role="line" id="tspan12642" style="stroke-width:0.5" x="13.432274" y="58.195934">This is a <tspan style="letter-spacing:0.320146px" id="tspan25400">text</tspan> with kerns adjusted in tspans</tspan><tspan sodipodi:role="line" style="stroke-width:0.5" x="13.432274" y="62.164684" id="tspan19510">(as Inkscape does it)</tspan></text><flowRoot xml:space="preserve" style="font-size:12px;line-height:125%;font-family:Arial;-inkscape-font-specification:Arial;fill:#000000;stroke-width:1.88976;stroke-linecap:round;stroke-linejoin:round" id="flowroot" transform="matrix(0.264583 0 0 0.264583 -31.812 -9.94967)"><flowRegion id="flowRegion92145"><rect id="rect92147" width="152.30298" height="81.669708" x="314.75946" y="71.957634"/></flowRegion><flowPara id="flowPara92157" style="font-size:10px">This is an SVG1.2 flowed text (flowroot)</flowPara><flowPara id="flowPara92168">And this is a linebreak inside.</flowPara></flowRoot><text x="429.95946" y="99.457634" style="font-size:12px;line-height:125%;font-family:Arial;-inkscape-font-specification:Arial;fill:#000000;stroke-width:1.88976;stroke-linecap:round;stroke-linejoin:round" transform="matrix(0.264583 0 0 0.264583 -31.812 -9.94967)"><tspan x="429.95946" y="99.457634">inside.</tspan></text><text x="381.95946" y="99.457634" style="font-size:12px;line-height:125%;font-family:Arial;-inkscape-font-specification:Arial;fill:#000000;stroke-width:1.88976;stroke-linecap:round;stroke-linejoin:round" transform="matrix(0.264583 0 0 0.264583 -31.812 -9.94967)"><tspan x="381.95946" y="99.457634">linebreak</tspan></text><text x="372.35945999999996" y="99.457634" style="font-size:12px;line-height:125%;font-family:Arial;-inkscape-font-specification:Arial;fill:#000000;stroke-width:1.88976;stroke-linecap:round;stroke-linejoin:round" transform="matrix(0.264583 0 0 0.264583 -31.812 -9.94967)"><tspan x="372.35945999999996" y="99.457634">a</tspan></text><text x="357.95946" y="99.457634" style="font-size:12px;line-height:125%;font-family:Arial;-inkscape-font-specification:Arial;fill:#000000;stroke-width:1.88976;stroke-linecap:round;stroke-linejoin:round" transform="matrix(0.264583 0 0 0.264583 -31.812 -9.94967)"><tspan x="357.95946" y="99.457634">is</tspan></text><text x="333.95946" y="99.457634" style="font-size:12px;line-height:125%;font-family:Arial;-inkscape-font-specification:Arial;fill:#000000;stroke-width:1.88976;stroke-linecap:round;stroke-linejoin:round" transform="matrix(0.264583 0 0 0.264583 -31.812 -9.94967)"><tspan x="333.95946" y="99.457634">this</tspan></text><text x="314.75946" y="99.457634" style="font-size:12px;line-height:125%;font-family:Arial;-inkscape-font-specification:Arial;fill:#000000;stroke-width:1.88976;stroke-linecap:round;stroke-linejoin:round" transform="matrix(0.264583 0 0 0.264583 -31.812 -9.94967)"><tspan x="314.75946" y="99.457634">And</tspan></text><text x="434.75946" y="84.457634" style="font-size:10px;line-height:125%;font-family:Arial;-inkscape-font-specification:Arial;fill:#000000;stroke-width:1.88976;stroke-linecap:round;stroke-linejoin:round" transform="matrix(0.264583 0 0 0.264583 -31.812 -9.94967)"><tspan x="434.75946" y="84.457634">(flowroot)</tspan></text><text x="414.75946" y="84.457634" style="font-size:10px;line-height:125%;font-family:Arial;-inkscape-font-specification:Arial;fill:#000000;stroke-width:1.88976;stroke-linecap:round;stroke-linejoin:round" transform="matrix(0.264583 0 0 0.264583 -31.812 -9.94967)"><tspan x="414.75946" y="84.457634">text</tspan></text><text x="386.75946" y="84.457634" style="font-size:10px;line-height:125%;font-family:Arial;-inkscape-font-specification:Arial;fill:#000000;stroke-width:1.88976;stroke-linecap:round;stroke-linejoin:round" transform="matrix(0.264583 0 0 0.264583 -31.812 -9.94967)"><tspan x="386.75946" y="84.457634">flowed</tspan></text><text x="358.75946" y="84.457634" style="font-size:10px;line-height:125%;font-family:Arial;-inkscape-font-specification:Arial;fill:#000000;stroke-width:1.88976;stroke-linecap:round;stroke-linejoin:round" transform="matrix(0.264583 0 0 0.264583 -31.812 -9.94967)"><tspan x="358.75946" y="84.457634">SVG1.2</tspan></text><text x="346.75946" y="84.457634" style="font-size:10px;line-height:125%;font-family:Arial;-inkscape-font-specification:Arial;fill:#000000;stroke-width:1.88976;stroke-linecap:round;stroke-linejoin:round" transform="matrix(0.264583 0 0 0.264583 -31.812 -9.94967)"><tspan x="346.75946" y="84.457634">an</tspan></text><text x="334.75946" y="84.457634" style="font-size:10px;line-height:125%;font-family:Arial;-inkscape-font-specification:Arial;fill:#000000;stroke-width:1.88976;stroke-linecap:round;stroke-linejoin:round" transform="matrix(0.264583 0 0 0.264583 -31.812 -9.94967)"><tspan x="334.75946" y="84.457634">is</tspan></text><text x="314.75946" y="84.457634" style="font-size:10px;line-height:125%;font-family:Arial;-inkscape-font-specification:Arial;fill:#000000;stroke-width:1.88976;stroke-linecap:round;stroke-linejoin:round" transform="matrix(0.264583 0 0 0.264583 -31.812 -9.94967)"><tspan x="314.75946" y="84.457634">This</tspan></text>
    <flowRoot xml:space="preserve" style="font-size:12px;line-height:20px;font-family:Arial;-inkscape-font-specification:Arial;fill:#000000;stroke-width:1.88976;stroke-linecap:round;stroke-linejoin:round" id="flowroot-abs-lineheight" transform="matrix(0.264583 0 0 0.264583 11.8881 -10.4906)"><flowRegion id="flowRegion92145-9"><rect id="rect92147-2" width="152.30298" height="81.669708" x="314.75946" y="71.957634"/></flowRegion><flowPara id="flowPara92157-6" style="font-size:10px">This is an SVG1.2 flowed text</flowPara><flowPara style="font-size:10px" id="flowPara181051">With absolute line-height</flowPara><flowPara id="flowPara92168-7"/></flowRoot><text x="370.75946" y="104.457634" style="font-size:10px;line-height:20px;font-family:Arial;-inkscape-font-specification:Arial;fill:#000000;stroke-width:1.88976;stroke-linecap:round;stroke-linejoin:round" transform="matrix(0.264583 0 0 0.264583 11.8881 -10.4906)"><tspan x="370.75946" y="104.457634">line-height</tspan></text><text x="334.75946" y="104.457634" style="font-size:10px;line-height:20px;font-family:Arial;-inkscape-font-specification:Arial;fill:#000000;stroke-width:1.88976;stroke-linecap:round;stroke-linejoin:round" transform="matrix(0.264583 0 0 0.264583 11.8881 -10.4906)"><tspan x="334.75946" y="104.457634">absolute</tspan></text><text x="314.75946" y="104.457634" style="font-size:10px;line-height:20px;font-family:Arial;-inkscape-font-specification:Arial;fill:#000000;stroke-width:1.88976;stroke-linecap:round;stroke-linejoin:round" transform="matrix(0.264583 0 0 0.264583 11.8881 -10.4906)"><tspan x="314.75946" y="104.457634">With</tspan></text><text x="414.75946" y="84.457634" style="font-size:10px;line-height:20px;font-family:Arial;-inkscape-font-specification:Arial;fill:#000000;stroke-width:1.88976;stroke-linecap:round;stroke-linejoin:round" transform="matrix(0.264583 0 0 0.264583 11.8881 -10.4906)"><tspan x="414.75946" y="84.457634">text</tspan></text><text x="386.75946" y="84.457634" style="font-size:10px;line-height:20px;font-family:Arial;-inkscape-font-specification:Arial;fill:#000000;stroke-width:1.88976;stroke-linecap:round;stroke-linejoin:round" transform="matrix(0.264583 0 0 0.264583 11.8881 -10.4906)"><tspan x="386.75946" y="84.457634">flowed</tspan></text><text x="358.75946" y="84.457634" style="font-size:10px;line-height:20px;font-family:Arial;-inkscape-font-specification:Arial;fill:#000000;stroke-width:1.88976;stroke-linecap:round;stroke-linejoin:round" transform="matrix(0.264583 0 0 0.264583 11.8881 -10.4906)"><tspan x="358.75946" y="84.457634">SVG1.2</tspan></text><text x="346.75946" y="84.457634" style="font-size:10px;line-height:20px;font-family:Arial;-inkscape-font-specification:Arial;fill:#000000;stroke-width:1.88976;stroke-linecap:round;stroke-linejoin:round" transform="matrix(0.264583 0 0 0.264583 11.8881 -10.4906)"><tspan x="346.75946" y="84.457634">an</tspan></text><text x="334.75946" y="84.457634" style="font-size:10px;line-height:20px;font-family:Arial;-inkscape-font-specification:Arial;fill:#000000;stroke-width:1.88976;stroke-linecap:round;stroke-linejoin:round" transform="matrix(0.264583 0 0 0.264583 11.8881 -10.4906)"><tspan x="334.75946" y="84.457634">is</tspan></text><text x="314.75946" y="84.457634" style="font-size:10px;line-height:20px;font-family:Arial;-inkscape-font-specification:Arial;fill:#000000;stroke-width:1.88976;stroke-linecap:round;stroke-linejoin:round" transform="matrix(0.264583 0 0 0.264583 11.8881 -10.4906)"><tspan x="314.75946" y="84.457634">This</tspan></text>
    <flowRoot xml:space="preserve" style="font-size:12px;font-family:Arial;-inkscape-font-specification:Arial;fill:#000000;stroke-width:1.88976;stroke-linecap:round;stroke-linejoin:round" id="flowroot-no-lineheight" transform="matrix(0.264583 0 0 0.264583 11.8881 1.86353)"><flowRegion id="flowRegion92145-9-5"><rect id="rect92147-2-1" width="171.20064" height="66.55159" x="314.75946" y="71.957634"/></flowRegion><flowPara id="flowPara178978">This is an SVG1.2 flowed text</flowPara><flowPara id="flowPara191038">without line height.</flowPara></flowRoot><text x="377.15945999999997" y="101.35763399999999" style="font-size:12px;font-family:Arial;-inkscape-font-specification:Arial;fill:#000000;stroke-width:1.88976;stroke-linecap:round;stroke-linejoin:round" transform="matrix(0.264583 0 0 0.264583 11.8881 1.86353)"><tspan x="377.15945999999997" y="101.35763399999999">height.</tspan></text><text x="353.15945999999997" y="101.35763399999999" style="font-size:12px;font-family:Arial;-inkscape-font-specification:Arial;fill:#000000;stroke-width:1.88976;stroke-linecap:round;stroke-linejoin:round" transform="matrix(0.264583 0 0 0.264583 11.8881 1.86353)"><tspan x="353.15945999999997" y="101.35763399999999">line</tspan></text><text x="314.75946" y="101.35763399999999" style="font-size:12px;font-family:Arial;-inkscape-font-specification:Arial;fill:#000000;stroke-width:1.88976;stroke-linecap:round;stroke-linejoin:round" transform="matrix(0.264583 0 0 0.264583 11.8881 1.86353)"><tspan x="314.75946" y="101.35763399999999">without</tspan></text><text x="434.75946" y="86.957634" style="font-size:12px;font-family:Arial;-inkscape-font-specification:Arial;fill:#000000;stroke-width:1.88976;stroke-linecap:round;stroke-linejoin:round" transform="matrix(0.264583 0 0 0.264583 11.8881 1.86353)"><tspan x="434.75946" y="86.957634">text</tspan></text><text x="401.15945999999997" y="86.957634" style="font-size:12px;font-family:Arial;-inkscape-font-specification:Arial;fill:#000000;stroke-width:1.88976;stroke-linecap:round;stroke-linejoin:round" transform="matrix(0.264583 0 0 0.264583 11.8881 1.86353)"><tspan x="401.15945999999997" y="86.957634">flowed</tspan></text><text x="367.55945999999994" y="86.957634" style="font-size:12px;font-family:Arial;-inkscape-font-specification:Arial;fill:#000000;stroke-width:1.88976;stroke-linecap:round;stroke-linejoin:round" transform="matrix(0.264583 0 0 0.264583 11.8881 1.86353)"><tspan x="367.55945999999994" y="86.957634">SVG1.2</tspan></text><text x="353.15945999999997" y="86.957634" style="font-size:12px;font-family:Arial;-inkscape-font-specification:Arial;fill:#000000;stroke-width:1.88976;stroke-linecap:round;stroke-linejoin:round" transform="matrix(0.264583 0 0 0.264583 11.8881 1.86353)"><tspan x="353.15945999999997" y="86.957634">an</tspan></text><text x="338.75946" y="86.957634" style="font-size:12px;font-family:Arial;-inkscape-font-specification:Arial;fill:#000000;stroke-width:1.88976;stroke-linecap:round;stroke-linejoin:round" transform="matrix(0.264583 0 0 0.264583 11.8881 1.86353)"><tspan x="338.75946" y="86.957634">is</tspan></text><text x="314.75946" y="86.957634" style="font-size:12px;font-family:Arial;-inkscape-font-specification:Arial;fill:#000000;stroke-width:1.88976;stroke-linecap:round;stroke-linejoin:round" transform="matrix(0.264583 0 0 0.264583 11.8881 1.86353)"><tspan x="314.75946" y="86.957634">This</tspan></text>
    <text y="4.9445772" x="51.84655" style="font-variant:normal;font-weight:normal;font-stretch:normal;font-size:1.37276px;font-family:Helvetica;-inkscape-font-specification:Helvetica;writing-mode:lr-tb;fill:#110f0d;fill-opacity:1;fill-rule:nonzero;stroke:none;stroke-width:0.352777" id="manual-kerns"><tspan style="stroke-width:0.352777" x="51.84655 52.646873 52.99144 58.482491 59.282814 59.627373 71.752998 72.553322 72.897888 75.069603 75.869919 76.214493 78.387573 79.187889 79.532463 82.391922 83.192253 83.536812 103.09733 103.89765 104.24221 109.73325 110.53359 110.87815 116.36782 117.16816 117.51272 119.68581 120.48612 120.83068" y="4.9445772" sodipodi:role="line" id="tspan5688">0.50.10.10.10.34.20.54.30.14.5</tspan></text><text xml:space="preserve" style="font-size:3.175px;line-height:125%;font-family:Arial;-inkscape-font-specification:Arial;direction:rtl;fill:#000000;stroke-width:0.25;stroke-linecap:round;stroke-linejoin:round" x="92.401642" y="36.257484" id="rtl"><tspan sodipodi:role="line" id="tspan94789" style="font-size:3.175px;direction:rtl;stroke-width:0.25" x="92.401642" y="36.257484">This is a text with direction:rtl </tspan></text><text xml:space="preserve" id="shape-inside" style="font-size:24px;line-height:125%;font-family:Arial;-inkscape-font-specification:Arial;writing-mode:lr-tb;direction:ltr;white-space:pre;shape-inside:url(#rect127697);fill:#000000;stroke-width:1.88976;stroke-linecap:round;stroke-linejoin:round" transform="matrix(0.13229167,0,0,0.13229167,-0.66073416,-0.33036706)"><tspan x="106.13281" y="317.54389" id="tspan192298">This is an SVG2 </tspan><tspan x="106.13281" y="347.54389" id="tspan192300">flowed text (shape </tspan><tspan x="106.13281" y="377.54389" id="tspan192302">inside)</tspan></text><text xml:space="preserve" style="font-size:5.33333px;line-height:125%;font-family:Arial;-inkscape-font-specification:Arial;writing-mode:lr-tb;direction:ltr;fill:#000000;stroke-width:1.88976;stroke-linecap:round;stroke-linejoin:round" x="13.65625" y="-19.117189" id="title"><tspan sodipodi:role="line" id="tspan156918" x="13.65625" y="-19.117189" style="font-size:5.33333px;direction:ltr">This is a test document containing different transformed </tspan><tspan sodipodi:role="line" x="13.65625" y="-12.450527" style="font-size:5.33333px;direction:ltr" id="tspan163610">text elements that were created using different methods.</tspan><tspan sodipodi:role="line" x="13.65625" y="-5.7838631" style="font-size:5.33333px;direction:ltr" id="tspan168431">The containing layer has a transform applied as well.</tspan></text>
  <text x="28.954261000000002" y="9.3133192" style="stroke-width:0.499999;font-size:3.175px;line-height:125%;font-family:Arial;-inkscape-font-specification:Arial;fill:#000000;stroke-linecap:round;stroke-linejoin:round"><tspan x="28.954261000000002" y="9.3133192">break.</tspan></text><text x="22.604261" y="9.3133192" style="stroke-width:0.499999;font-size:3.175px;line-height:125%;font-family:Arial;-inkscape-font-specification:Arial;fill:#000000;stroke-linecap:round;stroke-linejoin:round"><tspan x="22.604261" y="9.3133192">line</tspan></text><text x="20.064261000000002" y="9.3133192" style="stroke-width:0.499999;font-size:3.175px;line-height:125%;font-family:Arial;-inkscape-font-specification:Arial;fill:#000000;stroke-linecap:round;stroke-linejoin:round"><tspan x="20.064261000000002" y="9.3133192">a</tspan></text><text x="13.714261" y="9.3133192" style="stroke-width:0.499999;font-size:3.175px;line-height:125%;font-family:Arial;-inkscape-font-specification:Arial;fill:#000000;stroke-linecap:round;stroke-linejoin:round"><tspan x="13.714261" y="9.3133192">With</tspan></text><text x="36.574261" y="5.3445697" style="stroke-width:0.499999;font-size:3.175px;line-height:125%;font-family:Arial;-inkscape-font-specification:Arial;fill:#000000;stroke-linecap:round;stroke-linejoin:round"><tspan x="36.574261" y="5.3445697">text</tspan></text><text x="26.414261" y="5.3445697" style="stroke-width:0.499999;font-size:3.175px;line-height:125%;font-family:Arial;-inkscape-font-specification:Arial;fill:#000000;stroke-linecap:round;stroke-linejoin:round"><tspan x="26.414261" y="5.3445697">regular</tspan></text><text x="23.874261" y="5.3445697" style="stroke-width:0.499999;font-size:3.175px;line-height:125%;font-family:Arial;-inkscape-font-specification:Arial;fill:#000000;stroke-linecap:round;stroke-linejoin:round"><tspan x="23.874261" y="5.3445697">a</tspan></text><text x="20.064261000000002" y="5.3445697" style="stroke-width:0.499999;font-size:3.175px;line-height:125%;font-family:Arial;-inkscape-font-specification:Arial;fill:#000000;stroke-linecap:round;stroke-linejoin:round"><tspan x="20.064261000000002" y="5.3445697">is</tspan></text><text x="13.714261" y="5.3445697" style="stroke-width:0.499999;font-size:3.175px;line-height:125%;font-family:Arial;-inkscape-font-specification:Arial;fill:#000000;stroke-linecap:round;stroke-linejoin:round" transform="translate(-7e-07, -2.3e-05)"><tspan x="13.714261" y="5.3445697">This</tspan></text>
    
    <text x="97.07466099999999" y="1.1375122" style="stroke-width:0.499999;font-size:3.175px;line-height:125%;font-family:Arial;-inkscape-font-specification:Arial;fill:#000000;stroke-linecap:round;stroke-linejoin:round" transform="matrix(1.18412 0.525557 -0.382208 0.674869 0 0)"><tspan x="97.07466099999999" y="1.1375122">transforms.</tspan></text><text x="90.724661" y="1.1375122" style="stroke-width:0.499999;font-size:3.175px;line-height:125%;font-family:Arial;-inkscape-font-specification:Arial;fill:#000000;stroke-linecap:round;stroke-linejoin:round" transform="matrix(1.18412 0.525557 -0.382208 0.674869 0 0)"><tspan x="90.724661" y="1.1375122">some</tspan></text><text x="85.644661" y="1.1375122" style="stroke-width:0.499999;font-size:3.175px;line-height:125%;font-family:Arial;-inkscape-font-specification:Arial;fill:#000000;stroke-linecap:round;stroke-linejoin:round" transform="matrix(1.18412 0.525557 -0.382208 0.674869 0 0)"><tspan x="85.644661" y="1.1375122">and</tspan></text><text x="100.884661" y="-2.8312378" style="stroke-width:0.499999;font-size:3.175px;line-height:125%;font-family:Arial;-inkscape-font-specification:Arial;fill:#000000;stroke-linecap:round;stroke-linejoin:round" transform="matrix(1.18412 0.525557 -0.382208 0.674869 0 0)"><tspan x="100.884661" y="-2.8312378">break</tspan></text><text x="94.534661" y="-2.8312378" style="stroke-width:0.499999;font-size:3.175px;line-height:125%;font-family:Arial;-inkscape-font-specification:Arial;fill:#000000;stroke-linecap:round;stroke-linejoin:round" transform="matrix(1.18412 0.525557 -0.382208 0.674869 0 0)"><tspan x="94.534661" y="-2.8312378">line</tspan></text><text x="91.994661" y="-2.8312378" style="stroke-width:0.499999;font-size:3.175px;line-height:125%;font-family:Arial;-inkscape-font-specification:Arial;fill:#000000;stroke-linecap:round;stroke-linejoin:round" transform="matrix(1.18412 0.525557 -0.382208 0.674869 0 0)"><tspan x="91.994661" y="-2.8312378">a</tspan></text><text x="85.644661" y="-2.8312378" style="stroke-width:0.499999;font-size:3.175px;line-height:125%;font-family:Arial;-inkscape-font-specification:Arial;fill:#000000;stroke-linecap:round;stroke-linejoin:round" transform="matrix(1.18412 0.525557 -0.382208 0.674869 0 0)"><tspan x="85.644661" y="-2.8312378">with</tspan></text><text x="105.96466099999999" y="-6.7999878" style="stroke-width:0.499999;font-size:3.175px;line-height:125%;font-family:Arial;-inkscape-font-specification:Arial;fill:#000000;stroke-linecap:round;stroke-linejoin:round" transform="matrix(1.18412 0.525557 -0.382208 0.674869 0 0)"><tspan x="105.96466099999999" y="-6.7999878">text</tspan></text><text x="95.804661" y="-6.7999878" style="stroke-width:0.499999;font-size:3.175px;line-height:125%;font-family:Arial;-inkscape-font-specification:Arial;fill:#000000;stroke-linecap:round;stroke-linejoin:round" transform="matrix(1.18412 0.525557 -0.382208 0.674869 0 0)"><tspan x="95.804661" y="-6.7999878">regular</tspan></text><text x="91.994661" y="-6.7999878" style="stroke-width:0.499999;font-size:3.175px;line-height:125%;font-family:Arial;-inkscape-font-specification:Arial;fill:#000000;stroke-linecap:round;stroke-linejoin:round" transform="matrix(1.18412 0.525557 -0.382208 0.674869 0 0)"><tspan x="91.994661" y="-6.7999878">is</tspan></text><text x="85.644661" y="-6.7999878" style="stroke-width:0.499999;font-size:3.175px;line-height:125%;font-family:Arial;-inkscape-font-specification:Arial;fill:#000000;stroke-linecap:round;stroke-linejoin:round" transform="matrix(1.18412 0.525557 -0.382208 0.674869 0 0)"><tspan x="85.644661" y="-6.7999878">This</tspan></text>
    
    <text x="0.0" y="31.324005" style="stroke-width:0.499999;font-size:3.175px;line-height:125%;font-family:Arial;-inkscape-font-specification:Arial;white-space:pre;inline-size:24.045;fill:#000000;stroke-linecap:round;stroke-linejoin:round" transform="translate(13.5975, 3.70934)"><tspan x="0.0" y="31.324005">text.</tspan></text><text x="16.509999999999998" y="27.355255" style="stroke-width:0.499999;font-size:3.175px;line-height:125%;font-family:Arial;-inkscape-font-specification:Arial;white-space:pre;inline-size:24.045;fill:#000000;stroke-linecap:round;stroke-linejoin:round" transform="translate(13.5975, 3.70934)"><tspan x="16.509999999999998" y="27.355255">that</tspan></text><text x="7.619999999999999" y="27.355255" style="stroke-width:0.499999;font-size:3.175px;line-height:125%;font-family:Arial;-inkscape-font-specification:Arial;white-space:pre;inline-size:24.045;fill:#000000;stroke-linecap:round;stroke-linejoin:round" transform="translate(13.5975, 3.70934)"><tspan x="7.619999999999999" y="27.355255">inside</tspan></text><text x="0.0" y="27.355255" style="stroke-width:0.499999;font-size:3.175px;line-height:125%;font-family:Arial;-inkscape-font-specification:Arial;white-space:pre;inline-size:24.045;fill:#000000;stroke-linecap:round;stroke-linejoin:round" transform="translate(13.5975, 3.70934)"><tspan x="0.0" y="27.355255">break</tspan></text><text x="12.7" y="23.386505" style="stroke-width:0.499999;font-size:3.175px;line-height:125%;font-family:Arial;-inkscape-font-specification:Arial;white-space:pre;inline-size:24.045;fill:#000000;stroke-linecap:round;stroke-linejoin:round" transform="translate(13.5975, 3.70934)"><tspan x="12.7" y="23.386505">line</tspan></text><text x="10.16" y="23.386505" style="stroke-width:0.499999;font-size:3.175px;line-height:125%;font-family:Arial;-inkscape-font-specification:Arial;white-space:pre;inline-size:24.045;fill:#000000;stroke-linecap:round;stroke-linejoin:round" transform="translate(13.5975, 3.70934)"><tspan x="10.16" y="23.386505">a</tspan></text><text x="6.3500000000000005" y="23.386505" style="stroke-width:0.499999;font-size:3.175px;line-height:125%;font-family:Arial;-inkscape-font-specification:Arial;white-space:pre;inline-size:24.045;fill:#000000;stroke-linecap:round;stroke-linejoin:round" transform="translate(13.5975, 3.70934)"><tspan x="6.3500000000000005" y="23.386505">is</tspan></text><text x="0.0" y="23.386505" style="stroke-width:0.499999;font-size:3.175px;line-height:125%;font-family:Arial;-inkscape-font-specification:Arial;white-space:pre;inline-size:24.045;fill:#000000;stroke-linecap:round;stroke-linejoin:round" transform="translate(13.5975, 3.70934)"><tspan x="0.0" y="23.386505">This</tspan></text><text x="16.509999999999998" y="19.417755" style="stroke-width:0.499999;font-size:3.175px;line-height:125%;font-family:Arial;-inkscape-font-specification:Arial;white-space:pre;inline-size:24.045;fill:#000000;stroke-linecap:round;stroke-linejoin:round" transform="translate(13.5975, 3.70934)"><tspan x="16.509999999999998" y="19.417755">e)
</tspan></text><text x="11.43" y="19.417755" style="letter-spacing:0.275167px;font-size:3.175px;line-height:125%;font-family:Arial;-inkscape-font-specification:Arial;white-space:pre;inline-size:24.045;fill:#000000;stroke-width:0.499999;stroke-linecap:round;stroke-linejoin:round" transform="translate(13.5975, 3.70934)"><tspan x="11.43" y="19.417755">siz</tspan></text><text x="8.889999999999999" y="19.417755" style="letter-spacing:0.275167px;font-size:3.175px;line-height:125%;font-family:Arial;-inkscape-font-specification:Arial;white-space:pre;inline-size:24.045;fill:#000000;stroke-width:0.499999;stroke-linecap:round;stroke-linejoin:round" transform="translate(13.5975, 3.70934)"><tspan x="8.889999999999999" y="19.417755">e</tspan></text><text x="0.0" y="19.417755" style="stroke-width:0.499999;font-size:3.175px;line-height:125%;font-family:Arial;-inkscape-font-specification:Arial;white-space:pre;inline-size:24.045;fill:#000000;stroke-linecap:round;stroke-linejoin:round" transform="translate(13.5975, 3.70934)"><tspan x="0.0" y="19.417755">(inlin</tspan></text><text x="8.889999999999999" y="15.449005" style="stroke-width:0.499999;font-size:3.175px;line-height:125%;font-family:Arial;-inkscape-font-specification:Arial;white-space:pre;inline-size:24.045;fill:#000000;stroke-linecap:round;stroke-linejoin:round" transform="translate(13.5975, 3.70934)"><tspan x="8.889999999999999" y="15.449005">text.</tspan></text><text x="0.0" y="15.449005" style="stroke-width:0.499999;font-size:3.175px;line-height:125%;font-family:Arial;-inkscape-font-specification:Arial;white-space:pre;inline-size:24.045;fill:#000000;stroke-linecap:round;stroke-linejoin:round" transform="translate(13.5975, 3.70934)"><tspan x="0.0" y="15.449005">flowed</tspan></text><text x="13.969999999999999" y="11.480255" style="stroke-width:0.499999;font-size:3.175px;line-height:125%;font-family:Arial;-inkscape-font-specification:Arial;white-space:pre;inline-size:24.045;fill:#000000;stroke-linecap:round;stroke-linejoin:round" transform="translate(13.5975, 3.70934)"><tspan x="13.969999999999999" y="11.480255">SVG2</tspan></text><text x="10.16" y="11.480255" style="stroke-width:0.499999;font-size:3.175px;line-height:125%;font-family:Arial;-inkscape-font-specification:Arial;white-space:pre;inline-size:24.045;fill:#000000;stroke-linecap:round;stroke-linejoin:round" transform="translate(13.5975, 3.70934)"><tspan x="10.16" y="11.480255">an</tspan></text><text x="6.3500000000000005" y="11.480255" style="stroke-width:0.499999;font-size:3.175px;line-height:125%;font-family:Arial;-inkscape-font-specification:Arial;white-space:pre;inline-size:24.045;fill:#000000;stroke-linecap:round;stroke-linejoin:round" transform="translate(13.5975, 3.70934)"><tspan x="6.3500000000000005" y="11.480255">is</tspan></text><text x="0.0" y="11.480255" style="stroke-width:0.499999;font-size:3.175px;line-height:125%;font-family:Arial;-inkscape-font-specification:Arial;white-space:pre;inline-size:24.045;fill:#000000;stroke-linecap:round;stroke-linejoin:round" transform="translate(13.5975, 3.70934)"><tspan x="0.0" y="11.480255">This</tspan></text>
    
    <text x="36.292274" y="62.164684" style="stroke-width:0.499999;font-size:3.175px;line-height:125%;font-family:Arial;-inkscape-font-specification:Arial;letter-spacing:0.0343958px;fill:#000000;stroke-linecap:round;stroke-linejoin:round"><tspan x="36.292274" y="62.164684">it)</tspan></text><text x="29.942273999999998" y="62.164684" style="stroke-width:0.499999;font-size:3.175px;line-height:125%;font-family:Arial;-inkscape-font-specification:Arial;letter-spacing:0.0343958px;fill:#000000;stroke-linecap:round;stroke-linejoin:round"><tspan x="29.942273999999998" y="62.164684">does</tspan></text><text x="18.512273999999998" y="62.164684" style="stroke-width:0.499999;font-size:3.175px;line-height:125%;font-family:Arial;-inkscape-font-specification:Arial;letter-spacing:0.0343958px;fill:#000000;stroke-linecap:round;stroke-linejoin:round"><tspan x="18.512273999999998" y="62.164684">Inkscape</tspan></text><text x="13.432274" y="62.164684" style="stroke-width:0.499999;font-size:3.175px;line-height:125%;font-family:Arial;-inkscape-font-specification:Arial;letter-spacing:0.0343958px;fill:#000000;stroke-linecap:round;stroke-linejoin:round"><tspan x="13.432274" y="62.164684">(as</tspan></text><text x="64.232274" y="58.195934" style="stroke-width:0.499999;font-size:3.175px;line-height:125%;font-family:Arial;-inkscape-font-specification:Arial;letter-spacing:0.0343958px;fill:#000000;stroke-linecap:round;stroke-linejoin:round"><tspan x="64.232274" y="58.195934">tspans</tspan></text><text x="60.422274" y="58.195934" style="stroke-width:0.499999;font-size:3.175px;line-height:125%;font-family:Arial;-inkscape-font-specification:Arial;letter-spacing:0.0343958px;fill:#000000;stroke-linecap:round;stroke-linejoin:round"><tspan x="60.422274" y="58.195934">in</tspan></text><text x="48.992274" y="58.195934" style="stroke-width:0.499999;font-size:3.175px;line-height:125%;font-family:Arial;-inkscape-font-specification:Arial;letter-spacing:0.0343958px;fill:#000000;stroke-linecap:round;stroke-linejoin:round"><tspan x="48.992274" y="58.195934">adjusted</tspan></text><text x="41.372274000000004" y="58.195934" style="stroke-width:0.499999;font-size:3.175px;line-height:125%;font-family:Arial;-inkscape-font-specification:Arial;letter-spacing:0.0343958px;fill:#000000;stroke-linecap:round;stroke-linejoin:round"><tspan x="41.372274000000004" y="58.195934">kerns</tspan></text><text x="35.022274" y="58.195934" style="stroke-width:0.499999;font-size:3.175px;line-height:125%;font-family:Arial;-inkscape-font-specification:Arial;letter-spacing:0.0343958px;fill:#000000;stroke-linecap:round;stroke-linejoin:round"><tspan x="35.022274" y="58.195934">with</tspan></text><text x="27.402274" y="58.195934" style="letter-spacing:0.0343958px;stroke-width:0.499999;font-size:3.175px;line-height:125%;font-family:Arial;-inkscape-font-specification:Arial;fill:#000000;stroke-linecap:round;stroke-linejoin:round"><tspan x="27.402274" y="58.195934">text</tspan></text><text x="23.592274" y="58.195934" style="stroke-width:0.499999;font-size:3.175px;line-height:125%;font-family:Arial;-inkscape-font-specification:Arial;letter-spacing:0.0343958px;fill:#000000;stroke-linecap:round;stroke-linejoin:round"><tspan x="23.592274" y="58.195934">a</tspan></text><text x="19.782274" y="58.195934" style="stroke-width:0.499999;font-size:3.175px;line-height:125%;font-family:Arial;-inkscape-font-specification:Arial;letter-spacing:0.0343958px;fill:#000000;stroke-linecap:round;stroke-linejoin:round"><tspan x="19.782274" y="58.195934">is</tspan></text><text x="13.432274" y="58.195934" style="stroke-width:0.499999;font-size:3.175px;line-height:125%;font-family:Arial;-inkscape-font-specification:Arial;letter-spacing:0.0343958px;fill:#000000;stroke-linecap:round;stroke-linejoin:round"><tspan x="13.432274" y="58.195934">This</tspan></text>
    
    <text x="119.68581" y="4.9445772" style="stroke-width:0.352777;font-variant:normal;font-weight:normal;font-stretch:normal;font-size:1.37276px;font-family:Helvetica;-inkscape-font-specification:Helvetica;writing-mode:lr-tb;fill:#110f0d;fill-opacity:1;fill-rule:nonzero;stroke:none"><tspan x="119.68581" y="4.9445772">4.5</tspan></text><text x="116.36782" y="4.9445772" style="stroke-width:0.352777;font-variant:normal;font-weight:normal;font-stretch:normal;font-size:1.37276px;font-family:Helvetica;-inkscape-font-specification:Helvetica;writing-mode:lr-tb;fill:#110f0d;fill-opacity:1;fill-rule:nonzero;stroke:none"><tspan x="116.36782" y="4.9445772">0.1</tspan></text><text x="109.73325" y="4.9445772" style="stroke-width:0.352777;font-variant:normal;font-weight:normal;font-stretch:normal;font-size:1.37276px;font-family:Helvetica;-inkscape-font-specification:Helvetica;writing-mode:lr-tb;fill:#110f0d;fill-opacity:1;fill-rule:nonzero;stroke:none"><tspan x="109.73325" y="4.9445772">4.3</tspan></text><text x="103.09733" y="4.9445772" style="stroke-width:0.352777;font-variant:normal;font-weight:normal;font-stretch:normal;font-size:1.37276px;font-family:Helvetica;-inkscape-font-specification:Helvetica;writing-mode:lr-tb;fill:#110f0d;fill-opacity:1;fill-rule:nonzero;stroke:none"><tspan x="103.09733" y="4.9445772">0.5</tspan></text><text x="82.391922" y="4.9445772" style="stroke-width:0.352777;font-variant:normal;font-weight:normal;font-stretch:normal;font-size:1.37276px;font-family:Helvetica;-inkscape-font-specification:Helvetica;writing-mode:lr-tb;fill:#110f0d;fill-opacity:1;fill-rule:nonzero;stroke:none"><tspan x="82.391922" y="4.9445772">4.2</tspan></text><text x="78.387573" y="4.9445772" style="stroke-width:0.352777;font-variant:normal;font-weight:normal;font-stretch:normal;font-size:1.37276px;font-family:Helvetica;-inkscape-font-specification:Helvetica;writing-mode:lr-tb;fill:#110f0d;fill-opacity:1;fill-rule:nonzero;stroke:none"><tspan x="78.387573" y="4.9445772">0.3</tspan></text><text x="75.069603" y="4.9445772" style="stroke-width:0.352777;font-variant:normal;font-weight:normal;font-stretch:normal;font-size:1.37276px;font-family:Helvetica;-inkscape-font-specification:Helvetica;writing-mode:lr-tb;fill:#110f0d;fill-opacity:1;fill-rule:nonzero;stroke:none"><tspan x="75.069603" y="4.9445772">0.1</tspan></text><text x="71.752998" y="4.9445772" style="stroke-width:0.352777;font-variant:normal;font-weight:normal;font-stretch:normal;font-size:1.37276px;font-family:Helvetica;-inkscape-font-specification:Helvetica;writing-mode:lr-tb;fill:#110f0d;fill-opacity:1;fill-rule:nonzero;stroke:none"><tspan x="71.752998" y="4.9445772">0.1</tspan></text><text x="58.482491" y="4.9445772" style="stroke-width:0.352777;font-variant:normal;font-weight:normal;font-stretch:normal;font-size:1.37276px;font-family:Helvetica;-inkscape-font-specification:Helvetica;writing-mode:lr-tb;fill:#110f0d;fill-opacity:1;fill-rule:nonzero;stroke:none"><tspan x="58.482491" y="4.9445772">0.1</tspan></text><text x="51.84655" y="4.9445772" style="stroke-width:0.352777;font-variant:normal;font-weight:normal;font-stretch:normal;font-size:1.37276px;font-family:Helvetica;-inkscape-font-specification:Helvetica;writing-mode:lr-tb;fill:#110f0d;fill-opacity:1;fill-rule:nonzero;stroke:none"><tspan x="51.84655" y="4.9445772">0.5</tspan></text>
    
    <text x="117.80164199999999" y="36.257484" style="font-size:3.175px;stroke-width:0.25;line-height:125%;font-family:Arial;-inkscape-font-specification:Arial;fill:#000000;stroke-linecap:round;stroke-linejoin:round"><tspan x="117.80164199999999" y="36.257484">direction:rtl</tspan></text><text x="111.45164199999999" y="36.257484" style="font-size:3.175px;stroke-width:0.25;line-height:125%;font-family:Arial;-inkscape-font-specification:Arial;fill:#000000;stroke-linecap:round;stroke-linejoin:round"><tspan x="111.45164199999999" y="36.257484">with</tspan></text><text x="105.101642" y="36.257484" style="font-size:3.175px;stroke-width:0.25;line-height:125%;font-family:Arial;-inkscape-font-specification:Arial;fill:#000000;stroke-linecap:round;stroke-linejoin:round"><tspan x="105.101642" y="36.257484">text</tspan></text><text x="102.56164199999999" y="36.257484" style="font-size:3.175px;stroke-width:0.25;line-height:125%;font-family:Arial;-inkscape-font-specification:Arial;fill:#000000;stroke-linecap:round;stroke-linejoin:round"><tspan x="102.56164199999999" y="36.257484">a</tspan></text><text x="98.75164199999999" y="36.257484" style="font-size:3.175px;stroke-width:0.25;line-height:125%;font-family:Arial;-inkscape-font-specification:Arial;fill:#000000;stroke-linecap:round;stroke-linejoin:round"><tspan x="98.75164199999999" y="36.257484">is</tspan></text><text x="92.401642" y="36.257484" style="font-size:3.175px;stroke-width:0.25;line-height:125%;font-family:Arial;-inkscape-font-specification:Arial;fill:#000000;stroke-linecap:round;stroke-linejoin:round"><tspan x="92.401642" y="36.257484">This</tspan></text>
    
    <text x="106.13281" y="377.54389" style="font-size:24px;line-height:125%;font-family:Arial;-inkscape-font-specification:Arial;writing-mode:lr-tb;white-space:pre;fill:#000000;stroke-width:1.88976;stroke-linecap:round;stroke-linejoin:round" transform="matrix(0.132292 0 0 0.132292 -0.660734 -0.330367)"><tspan x="106.13281" y="377.54389">inside)</tspan></text><text x="221.33281" y="347.54389" style="font-size:24px;line-height:125%;font-family:Arial;-inkscape-font-specification:Arial;writing-mode:lr-tb;white-space:pre;fill:#000000;stroke-width:1.88976;stroke-linecap:round;stroke-linejoin:round" transform="matrix(0.132292 0 0 0.132292 -0.660734 -0.330367)"><tspan x="221.33281" y="347.54389">(shape</tspan></text><text x="173.33281" y="347.54389" style="font-size:24px;line-height:125%;font-family:Arial;-inkscape-font-specification:Arial;writing-mode:lr-tb;white-space:pre;fill:#000000;stroke-width:1.88976;stroke-linecap:round;stroke-linejoin:round" transform="matrix(0.132292 0 0 0.132292 -0.660734 -0.330367)"><tspan x="173.33281" y="347.54389">text</tspan></text><text x="106.13281" y="347.54389" style="font-size:24px;line-height:125%;font-family:Arial;-inkscape-font-specification:Arial;writing-mode:lr-tb;white-space:pre;fill:#000000;stroke-width:1.88976;stroke-linecap:round;stroke-linejoin:round" transform="matrix(0.132292 0 0 0.132292 -0.660734 -0.330367)"><tspan x="106.13281" y="347.54389">flowed</tspan></text><text x="211.73281000000003" y="317.54389" style="font-size:24px;line-height:125%;font-family:Arial;-inkscape-font-specification:Arial;writing-mode:lr-tb;white-space:pre;fill:#000000;stroke-width:1.88976;stroke-linecap:round;stroke-linejoin:round" transform="matrix(0.132292 0 0 0.132292 -0.660734 -0.330367)"><tspan x="211.73281000000003" y="317.54389">SVG2</tspan></text><text x="182.93281000000002" y="317.54389" style="font-size:24px;line-height:125%;font-family:Arial;-inkscape-font-specification:Arial;writing-mode:lr-tb;white-space:pre;fill:#000000;stroke-width:1.88976;stroke-linecap:round;stroke-linejoin:round" transform="matrix(0.132292 0 0 0.132292 -0.660734 -0.330367)"><tspan x="182.93281000000002" y="317.54389">an</tspan></text><text x="154.13281" y="317.54389" style="font-size:24px;line-height:125%;font-family:Arial;-inkscape-font-specification:Arial;writing-mode:lr-tb;white-space:pre;fill:#000000;stroke-width:1.88976;stroke-linecap:round;stroke-linejoin:round" transform="matrix(0.132292 0 0 0.132292 -0.660734 -0.330367)"><tspan x="154.13281" y="317.54389">is</tspan></text><text x="106.13281" y="317.54389" style="font-size:24px;line-height:125%;font-family:Arial;-inkscape-font-specification:Arial;writing-mode:lr-tb;white-space:pre;fill:#000000;stroke-width:1.88976;stroke-linecap:round;stroke-linejoin:round" transform="matrix(0.132292 0 0 0.132292 -0.660734 -0.330367)"><tspan x="106.13281" y="317.54389">This</tspan></text>
    
    </g>
</svg>